Assignment3/src/TRACE.vcd
$var reg 	6 !	PC.PCr  $end
$var reg 	6 "	PC.pc_out  $end
$var reg 	6 #	PC.jump_target  $end
$var reg 	1 $	PC.sel  $end
$var reg 	1 %	bus.reqDataMem  $end
$var reg 	32 &	bus.cmdDataMem  $end
$var reg 	32 '	bus.datainDataMem  $end
$var reg 	1 (	bus.ackDataMem  $end
$var reg 	1 )	bus.dataRdyDataMem  $end
$var reg 	32 *	bus.dataoutDataMem  $end
$var reg 	1 +	bus.waitDataMem  $end
$var reg 	1 ,	bus.reqSensor  $end
$var reg 	32 -	bus.cmdSensor  $end
$var reg 	1 .	bus.ackSensor  $end
$var reg 	1 /	bus.dataRdySensor  $end
$var reg 	32 0	bus.dataoutSensor  $end
$var reg 	1 1	bus.waitSensor  $end
$var reg 	1 2	bus.reqOutput  $end
$var reg 	32 3	bus.cmdOutput  $end
$var reg 	32 4	bus.datainOutput  $end
$var reg 	1 5	bus.ackOutput  $end
$var reg 	1 6	bus.dataRdyOutput  $end
$var reg 	32 7	bus.dataoutOutput  $end
$var reg 	1 8	bus.waitOutput  $end
$var reg 	1 9	bus.reqCPU  $end
$var reg 	32 :	bus.cmdCPU  $end
$var reg 	32 ;	bus.dataoutCPU  $end
$var reg 	1 <	bus.ackCPU  $end
$var reg 	1 =	bus.dataRdyCPU  $end
$var reg 	32 >	bus.datainCPU  $end
$var reg 	1 ?	bus.waitCPU  $end
$var reg 	32 @	bus_toplevel.DM_datain  $end
$var reg 	1 A	bus_toplevel.DM_datainrdy  $end
$var reg 	32 B	bus_toplevel.DM_dataout  $end
$var reg 	32 C	bus_toplevel.DM_cmdout  $end
$var reg 	1 D	bus_toplevel.DM_dataoutrdy  $end
$var reg 	32 E	bus_toplevel.SS_datain  $end
$var reg 	1 F	bus_toplevel.SS_datainrdy  $end
$var reg 	32 G	bus_toplevel.SS_dataout  $end
$var reg 	32 H	bus_toplevel.SS_cmdout  $end
$var reg 	1 I	bus_toplevel.SS_dataoutrdy  $end
$var reg 	32 J	bus_toplevel.OP_datain  $end
$var reg 	1 K	bus_toplevel.OP_datainrdy  $end
$var reg 	32 L	bus_toplevel.OP_dataout  $end
$var reg 	32 M	bus_toplevel.OP_cmdout  $end
$var reg 	1 N	bus_toplevel.OP_dataoutrdy  $end
$var reg 	32 O	bus_toplevel.CP_datain  $end
$var reg 	1 P	bus_toplevel.CP_datainrdy  $end
$var reg 	32 Q	bus_toplevel.CP_dataout  $end
$var reg 	32 R	bus_toplevel.CP_cmdout  $end
$var reg 	1 S	bus_toplevel.CP_dataoutrdy  $end
$var reg 	12 T	DataMem.address  $end
$var reg 	1 U	DataMem.wr  $end
$var reg 	1 V	DataMem.rd  $end
$var reg 	32 W	DataMem.idata  $end
$var reg 	32 X	Sensor.odata  $end
$var reg 	10 Y	Sensor.c  $end
$var reg 	32 Z	Output.FilterOut  $end
$var reg 	10 [	Output.count  $end
$enddefinitions $end 
$enddefinitions $end 
#1
b000000 !
b000001 "
b000000 #
b0 $
b0 %
b00000000000000000000000000000000 &
b00000000000000000000000000000000 '
b0 (
b0 )
b00000000000000000000000000000000 *
b0 +
b0 ,
b00000000000000000000000000000000 -
b0 .
b0 /
b00000000000000000000000000000000 0
b0 1
b0 2
b00000000000000000000000000000000 3
b00000000000000000000000000000000 4
b0 5
b0 6
b00000000000000000000000000000000 7
b0 8
b0 9
b00000000000000000000000000000000 :
b00000000000000000000000000000000 ;
b0 <
b0 =
b00000000000000000000000000000000 >
b0 ?
b00000000000000000000000000000000 @
b0 A
b00000000000000000000000000000000 B
b00000000000000000000000000000000 C
b0 D
b11111111111111111111111100110110 E
b0 F
b00000000000000000000000000000000 G
b00000000000000000000000000000000 H
b0 I
b00000000000000000000000100100011 J
b0 K
b00000000000000000000000000000000 L
b00000000000000000000000000000000 M
b0 N
b00000000000000000000000000000000 O
b0 P
b00000000000000000000000000000000 Q
b00000000000000000000000000000000 R
b0 S
b000000000000 T
b0 U
b1 V
b00000000000000000000000000000000 W
b11111111111111111111111100110110 X
b0000000000 Y
b00000000000000000000000000000000 Z
b0000000000 [
#2
b000001 !
b000010 "
b001000 #
b0 $
b0 %
b00000000000000000000000000000000 &
b00000000000000000000000000000000 '
b0 (
b0 )
b00000000000000000000000000000000 *
b0 +
b0 ,
b00000000000000000000000000000000 -
b0 .
b0 /
b00000000000000000000000000000000 0
b0 1
b0 2
b00000000000000000000000000000000 3
b00000000000000000000000000000000 4
b0 5
b0 6
b00000000000000000000000000000000 7
b0 8
b0 9
b00000000000000000000000000000000 :
b00000000000000000000000000000000 ;
b0 <
b0 =
b00000000000000000000000000000000 >
b0 ?
b00000000000000000000000000000000 @
b0 A
b00000000000000000000000000000000 B
b00000000000000000000000000000000 C
b0 D
b11111111111111111111111100110110 E
b0 F
b00000000000000000000000000000000 G
b00000000000000000000000000000000 H
b0 I
b00000000000000000000000100100011 J
b0 K
b00000000000000000000000000000000 L
b00000000000000000000000000000000 M
b0 N
b00000000000000000000000000000000 O
b0 P
b00000000000000000000000000000000 Q
b00000000000000000000000000000000 R
b0 S
b000000000000 T
b0 U
b1 V
b00000000000000000000000000000000 W
b11111111111111111111111100110110 X
b0000000000 Y
b00000000000000000000000000000000 Z
b0000000000 [
#3
b000010 !
b000011 "
b010000 #
b0 $
b0 %
b00000000000000000000000000000000 &
b00000000000000000000000000000000 '
b0 (
b0 )
b00000000000000000000000000000000 *
b0 +
b0 ,
b00000000000000000000000000000000 -
b0 .
b0 /
b00000000000000000000000000000000 0
b0 1
b0 2
b00000000000000000000000000000000 3
b00000000000000000000000000000000 4
b0 5
b0 6
b00000000000000000000000000000000 7
b0 8
b0 9
b00000000000000000000000000000000 :
b00000000000000000000000000000000 ;
b0 <
b0 =
b00000000000000000000000000000000 >
b0 ?
b00000000000000000000000000000000 @
b0 A
b00000000000000000000000000000000 B
b00000000000000000000000000000000 C
b0 D
b11111111111111111111111100110110 E
b0 F
b00000000000000000000000000000000 G
b00000000000000000000000000000000 H
b0 I
b00000000000000000000000100100011 J
b0 K
b00000000000000000000000000000000 L
b00000000000000000000000000000000 M
b0 N
b00000000000000000000000000000000 O
b0 P
b00000000000000000000000000000000 Q
b00000000000000000000000000000000 R
b0 S
b000000000000 T
b0 U
b1 V
b00000000000000000000000000000000 W
b11111111111111111111111100110110 X
b0000000001 Y
b00000000000000000000000000000000 Z
b0000000000 [
#4
b000011 !
b000100 "
b001110 #
b0 $
b0 %
b00000000000000000000000000000000 &
b00000000000000000000000000000000 '
b0 (
b0 )
b00000000000000000000000000000000 *
b0 +
b0 ,
b00000000000000000000000000000000 -
b0 .
b0 /
b00000000000000000000000000000000 0
b0 1
b0 2
b00000000000000000000000000000000 3
b00000000000000000000000000000000 4
b0 5
b0 6
b00000000000000000000000000000000 7
b0 8
b0 9
b00000000000000000000000000000000 :
b00000000000000000000000000000000 ;
b0 <
b0 =
b00000000000000000000000000000000 >
b0 ?
b00000000000000000000000000000000 @
b0 A
b00000000000000000000000000000000 B
b00000000000000000000000000000000 C
b0 D
b11111111111111111111111100110110 E
b0 F
b00000000000000000000000000000000 G
b00000000000000000000000000000000 H
b0 I
b00000000000000000000000100100011 J
b0 K
b00000000000000000000000000000000 L
b00000000000000000000000000000000 M
b0 N
b00000000000000000000000000000000 O
b0 P
b00000000000000000000000000000000 Q
b00000000000000000000000000000000 R
b0 S
b000000000000 T
b0 U
b1 V
b00000000000000000000000000000000 W
b11111111111111111111111100110110 X
b0000000010 Y
b00000000000000000000000000000000 Z
b0000000000 [
#5
b000100 !
b000100 "
b010000 #
b0 $
b1 %
b00000000000000000000000000000000 &
b00000000000000000000000000000000 '
b0 (
b0 )
b00000000000000000000000000000000 *
b0 +
b1 ,
b00000000000000000000000000000000 -
b0 .
b0 /
b00000000000000000000000000000000 0
b0 1
b1 2
b00000000000000000000000000000000 3
b00000000000000000000000000000000 4
b0 5
b0 6
b00000000000000000000000000000000 7
b0 8
b1 9
b00000000000000000000000000000000 :
b00000000000000000000000000000000 ;
b0 <
b0 =
b00000000000000000000000000000000 >
b0 ?
b00000000000000000000000000000000 @
b0 A
b00000000000000000000000000000000 B
b00000000000000000000000000000000 C
b0 D
b11111111111111111111111100110110 E
b0 F
b00000000000000000000000000000000 G
b00000000000000000000000000000000 H
b0 I
b00000000000000000000000100100011 J
b0 K
b00000000000000000000000000000000 L
b00000000000000000000000000000000 M
b0 N
b00000000000000000000000000000000 O
b0 P
b00000000000000000000000000000000 Q
b00000000000000000000000000000000 R
b0 S
b000000000000 T
b0 U
b1 V
b00000000000000000000000000000000 W
b11111111111111111111111100110110 X
b0000000011 Y
b00000000000000000000000000000000 Z
b0000000000 [
#6
b000100 !
b000101 "
b010000 #
b0 $
b1 %
b00000000000000000000000000000000 &
b00000000000000000000000000000000 '
b0 (
b0 )
b00000000000000000000000000000000 *
b0 +
b1 ,
b00000000000000000000000000000000 -
b0 .
b0 /
b00000000000000000000000000000000 0
b0 1
b1 2
b00000000000000000000000000000000 3
b00000000000000000000000000000000 4
b0 5
b0 6
b00000000000000000000000000000000 7
b0 8
b1 9
b00000000000000000000000000000000 :
b00000000000000000000000000000000 ;
b0 <
b0 =
b00000000000000000000000000000000 >
b0 ?
b00000000000000000000000000000000 @
b0 A
b00000000000000000000000000000000 B
b00000000000000000000000000000000 C
b0 D
b11111111111111111111111100110110 E
b0 F
b00000000000000000000000000000000 G
b00000000000000000000000000000000 H
b0 I
b00000000000000000000000100100011 J
b0 K
b00000000000000000000000000000000 L
b00000000000000000000000000000000 M
b0 N
b00000000000000000000000000000000 O
b0 P
b00000000000000000000000000000000 Q
b00000000000000000000000000000000 R
b0 S
b000000000000 T
b0 U
b1 V
b00000000000000000000000000000000 W
b11111111111111111111111100110110 X
b0000000100 Y
b00000000000000000000000000000000 Z
b0000000000 [
#7
b000101 !
b000110 "
b000001 #
b0 $
b1 %
b00000000000000000000000000000000 &
b00000000000000000000000000000000 '
b0 (
b0 )
b00000000000000000000000000000000 *
b0 +
b1 ,
b00000000000000000000000000000000 -
b0 .
b0 /
b00000000000000000000000000000000 0
b0 1
b1 2
b00000000000000000000000000000000 3
b00000000000000000000000000000000 4
b0 5
b0 6
b00000000000000000000000000000000 7
b0 8
b1 9
b00000000000000000000000000000000 :
b00000000000000000000000000000000 ;
b0 <
b0 =
b00000000000000000000000000000000 >
b0 ?
b00000000000000000000000000000000 @
b0 A
b00000000000000000000000000000000 B
b00000000000000000000000000000000 C
b0 D
b11111111111111111111111100110110 E
b0 F
b00000000000000000000000000000000 G
b00000000000000000000000000000000 H
b0 I
b00000000000000000000000100100011 J
b0 K
b00000000000000000000000000000000 L
b00000000000000000000000000000000 M
b0 N
b00000000000000000000000000000000 O
b0 P
b00000000000000000000000000000000 Q
b00000000000000000000000000000000 R
b0 S
b000000000000 T
b0 U
b1 V
b00000000000000000000000000000000 W
b11111111111111111111111100110110 X
b0000000101 Y
b00000000000000000000000000000000 Z
b0000000000 [
#8
b000110 !
b000111 "
b001100 #
b0 $
b1 %
b00000000000000000000000000000000 &
b00000000000000000000000000000000 '
b0 (
b0 )
b00000000000000000000000000000000 *
b0 +
b1 ,
b00000000000000000000000000000000 -
b0 .
b0 /
b00000000000000000000000000000000 0
b0 1
b1 2
b00000000000000000000000000000000 3
b00000000000000000000000000000000 4
b0 5
b0 6
b00000000000000000000000000000000 7
b0 8
b1 9
b00000000000000000000000000000000 :
b00000000000000000000000000000000 ;
b0 <
b0 =
b00000000000000000000000000000000 >
b0 ?
b00000000000000000000000000000000 @
b0 A
b00000000000000000000000000000000 B
b00000000000000000000000000000000 C
b0 D
b11111111111111111111111100110110 E
b0 F
b00000000000000000000000000000000 G
b00000000000000000000000000000000 H
b0 I
b00000000000000000000000100100011 J
b0 K
b00000000000000000000000000000000 L
b00000000000000000000000000000000 M
b0 N
b00000000000000000000000000000000 O
b0 P
b00000000000000000000000000000000 Q
b00000000000000000000000000000000 R
b0 S
b000000000000 T
b0 U
b1 V
b00000000000000000000000000000000 W
b11111111111111111111111100110110 X
b0000000110 Y
b00000000000000000000000000000000 Z
b0000000000 [
#9
b000111 !
b000100 "
b000100 #
b1 $
b1 %
b00000000000000000000000000000000 &
b00000000000000000000000000000000 '
b0 (
b0 )
b00000000000000000000000000000000 *
b0 +
b1 ,
b00000000000000000000000000000000 -
b0 .
b0 /
b00000000000000000000000000000000 0
b0 1
b1 2
b00000000000000000000000000000000 3
b00000000000000000000000000000000 4
b0 5
b0 6
b00000000000000000000000000000000 7
b0 8
b1 9
b00000000000000000000000000000000 :
b00000000000000000000000000000000 ;
b0 <
b0 =
b00000000000000000000000000000000 >
b0 ?
b00000000000000000000000000000000 @
b0 A
b00000000000000000000000000000000 B
b00000000000000000000000000000000 C
b0 D
b11111111111111111111111100110110 E
b0 F
b00000000000000000000000000000000 G
b00000000000000000000000000000000 H
b0 I
b00000000000000000000000100100011 J
b0 K
b00000000000000000000000000000000 L
b00000000000000000000000000000000 M
b0 N
b00000000000000000000000000000000 O
b0 P
b00000000000000000000000000000000 Q
b00000000000000000000000000000000 R
b0 S
b000000000000 T
b0 U
b1 V
b00000000000000000000000000000000 W
b11111111111111111111111100110110 X
b0000000111 Y
b00000000000000000000000000000000 Z
b0000000000 [
#10
b000100 !
b000101 "
b010000 #
b0 $
b1 %
b00000000000000000000000000000000 &
b00000000000000000000000000000000 '
b0 (
b0 )
b00000000000000000000000000000000 *
b0 +
b1 ,
b00000000000000000000000000000000 -
b0 .
b0 /
b00000000000000000000000000000000 0
b0 1
b1 2
b00000000000000000000000000000000 3
b00000000000000000000000000000000 4
b0 5
b0 6
b00000000000000000000000000000000 7
b0 8
b1 9
b00000000000000000000000000000000 :
b00000000000000000000000000000000 ;
b0 <
b0 =
b00000000000000000000000000000000 >
b0 ?
b00000000000000000000000000000000 @
b0 A
b00000000000000000000000000000000 B
b00000000000000000000000000000000 C
b0 D
b11111111111111111111111100110110 E
b0 F
b00000000000000000000000000000000 G
b00000000000000000000000000000000 H
b0 I
b00000000000000000000000100100011 J
b0 K
b00000000000000000000000000000000 L
b00000000000000000000000000000000 M
b0 N
b00000000000000000000000000000000 O
b0 P
b00000000000000000000000000000000 Q
b00000000000000000000000000000000 R
b0 S
b000000000000 T
b0 U
b1 V
b00000000000000000000000000000000 W
b11111111111111111111111100110110 X
b0000001000 Y
b00000000000000000000000000000000 Z
b0000000000 [
#11
b000101 !
b000110 "
b000001 #
b0 $
b1 %
b00000000000000000000000000000000 &
b00000000000000000000000000000000 '
b0 (
b0 )
b00000000000000000000000000000000 *
b0 +
b1 ,
b00000000000000000000000000000000 -
b0 .
b0 /
b00000000000000000000000000000000 0
b0 1
b1 2
b00000000000000000000000000000000 3
b00000000000000000000000000000000 4
b0 5
b0 6
b00000000000000000000000000000000 7
b0 8
b1 9
b00000000000000000000000000000000 :
b00000000000000000000000000000000 ;
b0 <
b0 =
b00000000000000000000000000000000 >
b0 ?
b00000000000000000000000000000000 @
b0 A
b00000000000000000000000000000000 B
b00000000000000000000000000000000 C
b0 D
b11111111111111111111111100110110 E
b0 F
b00000000000000000000000000000000 G
b00000000000000000000000000000000 H
b0 I
b00000000000000000000000100100011 J
b0 K
b00000000000000000000000000000000 L
b00000000000000000000000000000000 M
b0 N
b00000000000000000000000000000000 O
b0 P
b00000000000000000000000000000000 Q
b00000000000000000000000000000000 R
b0 S
b000000000000 T
b0 U
b1 V
b00000000000000000000000000000000 W
b11111111111111111111111100110110 X
b0000001001 Y
b00000000000000000000000000000000 Z
b0000000000 [
#12
b000110 !
b000111 "
b001100 #
b0 $
b1 %
b00000000000000000000000000000000 &
b00000000000000000000000000000000 '
b0 (
b0 )
b00000000000000000000000000000000 *
b0 +
b1 ,
b00000000000000000000000000000000 -
b0 .
b0 /
b00000000000000000000000000000000 0
b0 1
b1 2
b00000000000000000000000000000000 3
b00000000000000000000000000000000 4
b0 5
b0 6
b00000000000000000000000000000000 7
b0 8
b1 9
b00000000000000000000000000000000 :
b00000000000000000000000000000000 ;
b0 <
b0 =
b00000000000000000000000000000000 >
b0 ?
b00000000000000000000000000000000 @
b0 A
b00000000000000000000000000000000 B
b00000000000000000000000000000000 C
b0 D
b11111111111111111111111100111001 E
b0 F
b00000000000000000000000000000000 G
b00000000000000000000000000000000 H
b0 I
b00000000000000000000000100100011 J
b0 K
b00000000000000000000000000000000 L
b00000000000000000000000000000000 M
b0 N
b00000000000000000000000000000000 O
b0 P
b00000000000000000000000000000000 Q
b00000000000000000000000000000000 R
b0 S
b000000000000 T
b0 U
b1 V
b00000000000000000000000000000000 W
b11111111111111111111111100111001 X
b0000000000 Y
b00000000000000000000000000000000 Z
b0000000000 [
#13
b000111 !
b000100 "
b000100 #
b1 $
b1 %
b00000000000000000000000000000000 &
b00000000000000000000000000000000 '
b0 (
b0 )
b00000000000000000000000000000000 *
b0 +
b1 ,
b00000000000000000000000000000000 -
b0 .
b0 /
b00000000000000000000000000000000 0
b0 1
b1 2
b00000000000000000000000000000000 3
b00000000000000000000000000000000 4
b0 5
b0 6
b00000000000000000000000000000000 7
b0 8
b1 9
b00000000000000000000000000000000 :
b00000000000000000000000000000000 ;
b0 <
b0 =
b00000000000000000000000000000000 >
b0 ?
b00000000000000000000000000000000 @
b0 A
b00000000000000000000000000000000 B
b00000000000000000000000000000000 C
b0 D
b11111111111111111111111100111001 E
b0 F
b00000000000000000000000000000000 G
b00000000000000000000000000000000 H
b0 I
b00000000000000000000000100100011 J
b0 K
b00000000000000000000000000000000 L
b00000000000000000000000000000000 M
b0 N
b00000000000000000000000000000000 O
b0 P
b00000000000000000000000000000000 Q
b00000000000000000000000000000000 R
b0 S
b000000000000 T
b0 U
b1 V
b00000000000000000000000000000000 W
b11111111111111111111111100111001 X
b0000000001 Y
b00000000000000000000000000000000 Z
b0000000000 [
#14
b000100 !
b000101 "
b010000 #
b0 $
b1 %
b00000000000000000000000000000000 &
b00000000000000000000000000000000 '
b0 (
b0 )
b00000000000000000000000000000000 *
b0 +
b1 ,
b00000000000000000000000000000000 -
b0 .
b0 /
b00000000000000000000000000000000 0
b0 1
b1 2
b00000000000000000000000000000000 3
b00000000000000000000000000000000 4
b0 5
b0 6
b00000000000000000000000000000000 7
b0 8
b1 9
b00000000000000000000000000000000 :
b00000000000000000000000000000000 ;
b0 <
b0 =
b00000000000000000000000000000000 >
b0 ?
b00000000000000000000000000000000 @
b0 A
b00000000000000000000000000000000 B
b00000000000000000000000000000000 C
b0 D
b11111111111111111111111100111001 E
b0 F
b00000000000000000000000000000000 G
b00000000000000000000000000000000 H
b0 I
b00000000000000000000000100100011 J
b0 K
b00000000000000000000000000000000 L
b00000000000000000000000000000000 M
b0 N
b00000000000000000000000000000000 O
b0 P
b00000000000000000000000000000000 Q
b00000000000000000000000000000000 R
b0 S
b000000000000 T
b0 U
b1 V
b00000000000000000000000000000000 W
b11111111111111111111111100111001 X
b0000000010 Y
b00000000000000000000000000000000 Z
b0000000000 [
#15
b000101 !
b000110 "
b000001 #
b0 $
b1 %
b00000000000000000000000000000000 &
b00000000000000000000000000000000 '
b0 (
b0 )
b00000000000000000000000000000000 *
b0 +
b1 ,
b00000000000000000000000000000000 -
b0 .
b0 /
b00000000000000000000000000000000 0
b0 1
b1 2
b00000000000000000000000000000000 3
b00000000000000000000000000000000 4
b0 5
b0 6
b00000000000000000000000000000000 7
b0 8
b1 9
b00000000000000000000000000000000 :
b00000000000000000000000000000000 ;
b0 <
b0 =
b00000000000000000000000000000000 >
b0 ?
b00000000000000000000000000000000 @
b0 A
b00000000000000000000000000000000 B
b00000000000000000000000000000000 C
b0 D
b11111111111111111111111100111001 E
b0 F
b00000000000000000000000000000000 G
b00000000000000000000000000000000 H
b0 I
b00000000000000000000000100100011 J
b0 K
b00000000000000000000000000000000 L
b00000000000000000000000000000000 M
b0 N
b00000000000000000000000000000000 O
b0 P
b00000000000000000000000000000000 Q
b00000000000000000000000000000000 R
b0 S
b000000000000 T
b0 U
b1 V
b00000000000000000000000000000000 W
b11111111111111111111111100111001 X
b0000000011 Y
b00000000000000000000000000000000 Z
b0000000000 [
#16
b000110 !
b000111 "
b001100 #
b0 $
b1 %
b00000000000000000000000000000000 &
b00000000000000000000000000000000 '
b0 (
b0 )
b00000000000000000000000000000000 *
b0 +
b1 ,
b00000000000000000000000000000000 -
b0 .
b0 /
b00000000000000000000000000000000 0
b0 1
b1 2
b00000000000000000000000000000000 3
b00000000000000000000000000000000 4
b0 5
b0 6
b00000000000000000000000000000000 7
b0 8
b1 9
b00000000000000000000000000000000 :
b00000000000000000000000000000000 ;
b0 <
b0 =
b00000000000000000000000000000000 >
b0 ?
b00000000000000000000000000000000 @
b0 A
b00000000000000000000000000000000 B
b00000000000000000000000000000000 C
b0 D
b11111111111111111111111100111001 E
b0 F
b00000000000000000000000000000000 G
b00000000000000000000000000000000 H
b0 I
b00000000000000000000000100100011 J
b0 K
b00000000000000000000000000000000 L
b00000000000000000000000000000000 M
b0 N
b00000000000000000000000000000000 O
b0 P
b00000000000000000000000000000000 Q
b00000000000000000000000000000000 R
b0 S
b000000000000 T
b0 U
b1 V
b00000000000000000000000000000000 W
b11111111111111111111111100111001 X
b0000000100 Y
b00000000000000000000000000000000 Z
b0000000000 [
#17
b000111 !
b000100 "
b000100 #
b1 $
b1 %
b00000000000000000000000000000000 &
b00000000000000000000000000000000 '
b0 (
b0 )
b00000000000000000000000000000000 *
b0 +
b1 ,
b00000000000000000000000000000000 -
b0 .
b0 /
b00000000000000000000000000000000 0
b0 1
b1 2
b00000000000000000000000000000000 3
b00000000000000000000000000000000 4
b0 5
b0 6
b00000000000000000000000000000000 7
b0 8
b1 9
b00000000000000000000000000000000 :
b00000000000000000000000000000000 ;
b0 <
b0 =
b00000000000000000000000000000000 >
b0 ?
b00000000000000000000000000000000 @
b0 A
b00000000000000000000000000000000 B
b00000000000000000000000000000000 C
b0 D
b11111111111111111111111100111001 E
b0 F
b00000000000000000000000000000000 G
b00000000000000000000000000000000 H
b0 I
b00000000000000000000000100100011 J
b0 K
b00000000000000000000000000000000 L
b00000000000000000000000000000000 M
b0 N
b00000000000000000000000000000000 O
b0 P
b00000000000000000000000000000000 Q
b00000000000000000000000000000000 R
b0 S
b000000000000 T
b0 U
b1 V
b00000000000000000000000000000000 W
b11111111111111111111111100111001 X
b0000000101 Y
b00000000000000000000000000000000 Z
b0000000000 [
#18
b000100 !
b000101 "
b010000 #
b0 $
b1 %
b00000000000000000000000000000000 &
b00000000000000000000000000000000 '
b0 (
b0 )
b00000000000000000000000000000000 *
b0 +
b1 ,
b00000000000000000000000000000000 -
b0 .
b0 /
b00000000000000000000000000000000 0
b0 1
b1 2
b00000000000000000000000000000000 3
b00000000000000000000000000000000 4
b0 5
b0 6
b00000000000000000000000000000000 7
b0 8
b1 9
b00000000000000000000000000000000 :
b00000000000000000000000000000000 ;
b0 <
b0 =
b00000000000000000000000000000000 >
b0 ?
b00000000000000000000000000000000 @
b0 A
b00000000000000000000000000000000 B
b00000000000000000000000000000000 C
b0 D
b11111111111111111111111100111001 E
b0 F
b00000000000000000000000000000000 G
b00000000000000000000000000000000 H
b0 I
b00000000000000000000000100100011 J
b0 K
b00000000000000000000000000000000 L
b00000000000000000000000000000000 M
b0 N
b00000000000000000000000000000000 O
b0 P
b00000000000000000000000000000000 Q
b00000000000000000000000000000000 R
b0 S
b000000000000 T
b0 U
b1 V
b00000000000000000000000000000000 W
b11111111111111111111111100111001 X
b0000000110 Y
b00000000000000000000000000000000 Z
b0000000000 [
#19
b000101 !
b000110 "
b000001 #
b0 $
b1 %
b00000000000000000000000000000000 &
b00000000000000000000000000000000 '
b0 (
b0 )
b00000000000000000000000000000000 *
b0 +
b1 ,
b00000000000000000000000000000000 -
b0 .
b0 /
b00000000000000000000000000000000 0
b0 1
b1 2
b00000000000000000000000000000000 3
b00000000000000000000000000000000 4
b0 5
b0 6
b00000000000000000000000000000000 7
b0 8
b1 9
b00000000000000000000000000000000 :
b00000000000000000000000000000000 ;
b0 <
b0 =
b00000000000000000000000000000000 >
b0 ?
b00000000000000000000000000000000 @
b0 A
b00000000000000000000000000000000 B
b00000000000000000000000000000000 C
b0 D
b11111111111111111111111100111001 E
b0 F
b00000000000000000000000000000000 G
b00000000000000000000000000000000 H
b0 I
b00000000000000000000000100100011 J
b0 K
b00000000000000000000000000000000 L
b00000000000000000000000000000000 M
b0 N
b00000000000000000000000000000000 O
b0 P
b00000000000000000000000000000000 Q
b00000000000000000000000000000000 R
b0 S
b000000000000 T
b0 U
b1 V
b00000000000000000000000000000000 W
b11111111111111111111111100111001 X
b0000000111 Y
b00000000000000000000000000000000 Z
b0000000000 [
#20
b000110 !
b000111 "
b001100 #
b0 $
b1 %
b00000000000000000000000000000000 &
b00000000000000000000000000000000 '
b0 (
b0 )
b00000000000000000000000000000000 *
b0 +
b1 ,
b00000000000000000000000000000000 -
b0 .
b0 /
b00000000000000000000000000000000 0
b0 1
b1 2
b00000000000000000000000000000000 3
b00000000000000000000000000000000 4
b0 5
b0 6
b00000000000000000000000000000000 7
b0 8
b1 9
b00000000000000000000000000000000 :
b00000000000000000000000000000000 ;
b0 <
b0 =
b00000000000000000000000000000000 >
b0 ?
b00000000000000000000000000000000 @
b0 A
b00000000000000000000000000000000 B
b00000000000000000000000000000000 C
b0 D
b11111111111111111111111100111001 E
b0 F
b00000000000000000000000000000000 G
b00000000000000000000000000000000 H
b0 I
b00000000000000000000000100100011 J
b0 K
b00000000000000000000000000000000 L
b00000000000000000000000000000000 M
b0 N
b00000000000000000000000000000000 O
b0 P
b00000000000000000000000000000000 Q
b00000000000000000000000000000000 R
b0 S
b000000000000 T
b0 U
b1 V
b00000000000000000000000000000000 W
b11111111111111111111111100111001 X
b0000001000 Y
b00000000000000000000000000000000 Z
b0000000000 [
#21
b000111 !
b000100 "
b000100 #
b1 $
b1 %
b00000000000000000000000000000000 &
b00000000000000000000000000000000 '
b0 (
b0 )
b00000000000000000000000000000000 *
b0 +
b1 ,
b00000000000000000000000000000000 -
b0 .
b0 /
b00000000000000000000000000000000 0
b0 1
b1 2
b00000000000000000000000000000000 3
b00000000000000000000000000000000 4
b0 5
b0 6
b00000000000000000000000000000000 7
b0 8
b1 9
b00000000000000000000000000000000 :
b00000000000000000000000000000000 ;
b0 <
b0 =
b00000000000000000000000000000000 >
b0 ?
b00000000000000000000000000000000 @
b0 A
b00000000000000000000000000000000 B
b00000000000000000000000000000000 C
b0 D
b11111111111111111111111100111001 E
b0 F
b00000000000000000000000000000000 G
b00000000000000000000000000000000 H
b0 I
b00000000000000000000000100100011 J
b0 K
b00000000000000000000000000000000 L
b00000000000000000000000000000000 M
b0 N
b00000000000000000000000000000000 O
b0 P
b00000000000000000000000000000000 Q
b00000000000000000000000000000000 R
b0 S
b000000000000 T
b0 U
b1 V
b00000000000000000000000000000000 W
b11111111111111111111111100111001 X
b0000001001 Y
b00000000000000000000000000000000 Z
b0000000000 [
#22
b000100 !
b000101 "
b010000 #
b0 $
b1 %
b00000000000000000000000000000000 &
b00000000000000000000000000000000 '
b0 (
b0 )
b00000000000000000000000000000000 *
b0 +
b1 ,
b00000000000000000000000000000000 -
b0 .
b0 /
b00000000000000000000000000000000 0
b0 1
b1 2
b00000000000000000000000000000000 3
b00000000000000000000000000000000 4
b0 5
b0 6
b00000000000000000000000000000000 7
b0 8
b1 9
b00000000000000000000000000000000 :
b00000000000000000000000000000000 ;
b0 <
b0 =
b00000000000000000000000000000000 >
b0 ?
b00000000000000000000000000000000 @
b0 A
b00000000000000000000000000000000 B
b00000000000000000000000000000000 C
b0 D
b11111111111111111111111100111000 E
b0 F
b00000000000000000000000000000000 G
b00000000000000000000000000000000 H
b0 I
b00000000000000000000000100100011 J
b0 K
b00000000000000000000000000000000 L
b00000000000000000000000000000000 M
b0 N
b00000000000000000000000000000000 O
b0 P
b00000000000000000000000000000000 Q
b00000000000000000000000000000000 R
b0 S
b000000000000 T
b0 U
b1 V
b00000000000000000000000000000000 W
b11111111111111111111111100111000 X
b0000000000 Y
b00000000000000000000000000000000 Z
b0000000000 [
#23
b000101 !
b000110 "
b000001 #
b0 $
b1 %
b00000000000000000000000000000000 &
b00000000000000000000000000000000 '
b0 (
b0 )
b00000000000000000000000000000000 *
b0 +
b1 ,
b00000000000000000000000000000000 -
b0 .
b0 /
b00000000000000000000000000000000 0
b0 1
b1 2
b00000000000000000000000000000000 3
b00000000000000000000000000000000 4
b0 5
b0 6
b00000000000000000000000000000000 7
b0 8
b1 9
b00000000000000000000000000000000 :
b00000000000000000000000000000000 ;
b0 <
b0 =
b00000000000000000000000000000000 >
b0 ?
b00000000000000000000000000000000 @
b0 A
b00000000000000000000000000000000 B
b00000000000000000000000000000000 C
b0 D
b11111111111111111111111100111000 E
b0 F
b00000000000000000000000000000000 G
b00000000000000000000000000000000 H
b0 I
b00000000000000000000000100100011 J
b0 K
b00000000000000000000000000000000 L
b00000000000000000000000000000000 M
b0 N
b00000000000000000000000000000000 O
b0 P
b00000000000000000000000000000000 Q
b00000000000000000000000000000000 R
b0 S
b000000000000 T
b0 U
b1 V
b00000000000000000000000000000000 W
b11111111111111111111111100111000 X
b0000000001 Y
b00000000000000000000000000000000 Z
b0000000000 [
