Assignment2/src/TRACE.vcd
$var reg 	32 !	Register.r1  $end
$var reg 	32 "	Register.r2  $end
$var reg 	32 #	Register.r3  $end
$var reg 	32 $	Register.r4  $end
$var reg 	32 %	Register.r5  $end
$var reg 	32 &	Register.r6  $end
$var reg 	32 '	Register.r7  $end
$var reg 	32 (	Register.a  $end
$var reg 	32 )	Register.b  $end
$var reg 	6 *	PC.PCr  $end
$var reg 	6 +	PC.jump_target  $end
$var reg 	32 ,	CPU.aluOut  $end
$var reg 	1 -	CPU.aluZero  $end
$var reg 	1 .	CPU.aluNeg  $end
$var reg 	1 /	CPU.branch  $end
$var reg 	1 0	CPU.bneg  $end
$var reg 	1 1	CPU.bzero  $end
$var reg 	4 2	CPU.aluSelect  $end
$var reg 	1 3	CPU.addImmediate  $end
$var reg 	1 4	CPU.storeEnable  $end
$var reg 	3 5	CPU.storeSelect  $end
$var reg 	3 6	CPU.aSel  $end
$var reg 	3 7	CPU.bSel  $end
$var reg 	1 8	CPU.extLoad  $end
$var reg 	1 9	CPU.extStore  $end
$var reg 	1 :	CPU.extSensor  $end
$var reg 	1 ;	CPU.extLCD  $end
$var reg 	1 <	CPU.sys_stall  $end
$var reg 	32 =	CPU.M_datain  $end
$var reg 	32 >	CPU.M_cmd  $end
$var reg 	1 ?	bus.reqDataMem  $end
$var reg 	32 @	bus.cmdDataMem  $end
$var reg 	32 A	bus.datainDataMem  $end
$var reg 	1 B	bus.ackDataMem  $end
$var reg 	1 C	bus.dataRdyDataMem  $end
$var reg 	32 D	bus.dataoutDataMem  $end
$var reg 	1 E	bus.waitDataMem  $end
$var reg 	1 F	bus.reqSensor  $end
$var reg 	32 G	bus.cmdSensor  $end
$var reg 	1 H	bus.ackSensor  $end
$var reg 	1 I	bus.dataRdySensor  $end
$var reg 	32 J	bus.dataoutSensor  $end
$var reg 	1 K	bus.waitSensor  $end
$var reg 	1 L	bus.reqOutput  $end
$var reg 	32 M	bus.cmdOutput  $end
$var reg 	32 N	bus.datainOutput  $end
$var reg 	1 O	bus.ackOutput  $end
$var reg 	1 P	bus.dataRdyOutput  $end
$var reg 	32 Q	bus.dataoutOutput  $end
$var reg 	1 R	bus.waitOutput  $end
$var reg 	1 S	bus.reqCPU  $end
$var reg 	32 T	bus.cmdCPU  $end
$var reg 	32 U	bus.dataoutCPU  $end
$var reg 	1 V	bus.ackCPU  $end
$var reg 	1 W	bus.dataRdyCPU  $end
$var reg 	32 X	bus.datainCPU  $end
$var reg 	1 Y	bus.waitCPU  $end
$var reg 	32 Z	bus_toplevel.DM_datain  $end
$var reg 	1 [	bus_toplevel.DM_datainrdy  $end
$var reg 	32 \	bus_toplevel.DM_dataout  $end
$var reg 	32 ]	bus_toplevel.DM_cmdout  $end
$var reg 	1 ^	bus_toplevel.DM_dataoutrdy  $end
$var reg 	32 _	bus_toplevel.SS_datain  $end
$var reg 	1 `	bus_toplevel.SS_datainrdy  $end
$var reg 	32 a	bus_toplevel.SS_dataout  $end
$var reg 	32 b	bus_toplevel.SS_cmdout  $end
$var reg 	1 c	bus_toplevel.SS_dataoutrdy  $end
$var reg 	32 d	bus_toplevel.OP_datain  $end
$var reg 	1 e	bus_toplevel.OP_datainrdy  $end
$var reg 	32 f	bus_toplevel.OP_dataout  $end
$var reg 	32 g	bus_toplevel.OP_cmdout  $end
$var reg 	1 h	bus_toplevel.OP_dataoutrdy  $end
$var reg 	12 i	DataMem.address  $end
$var reg 	1 j	DataMem.wr  $end
$var reg 	1 k	DataMem.rd  $end
$var reg 	32 l	DataMem.idata  $end
$var reg 	32 m	Sensor.odata  $end
$var reg 	10 n	Sensor.c  $end
$var reg 	32 o	Output.FilterOut  $end
$var reg 	10 p	Output.count  $end
$enddefinitions $end 
$enddefinitions $end 
#1
b00000000000000000000000000000000 !
b00000000000000000000000000000000 "
b00000000000000000000000000000000 #
b00000000000000000000000000000000 $
b00000000000000000000000000000000 %
b00000000000000000000000000000000 &
b00000000000000000000000000000000 '
b00000000000000000000000000000000 (
b00000000000000000000000000000000 )
b000000 *
b001000 +
b00000000000000000000000000100000 ,
b0 -
b0 .
b0 /
b0 0
b0 1
b0001 2
b1 3
b1 4
b001 5
b000 6
b000 7
b0 8
b0 9
b0 :
b0 ;
b0 <
b00000000000000000000000000000000 =
b00000000000000000000000000000000 >
b0 ?
b00000000000000000000000000000000 @
b00000000000000000000000000000000 A
b0 B
b0 C
b00000000000000000000000000000000 D
b0 E
b0 F
b00000000000000000000000000000000 G
b0 H
b0 I
b00000000000000000000000000000000 J
b0 K
b0 L
b00000000000000000000000000000000 M
b00000000000000000000000000000000 N
b0 O
b0 P
b00000000000000000000000000000000 Q
b0 R
b0 S
b00000000000000000000000000000000 T
b00000000000000000000000000000000 U
b0 V
b0 W
b00000000000000000000000000000000 X
b0 Y
b00000000000000000000000000000000 Z
b0 [
b00000000000000000000000000000000 \
b00000000000000000000000000000000 ]
b0 ^
b11111111111111111111111100110110 _
b0 `
b00000000000000000000000000000000 a
b00000000000000000000000000000000 b
b0 c
b00000000000000000000000100100011 d
b0 e
b00000000000000000000000000000000 f
b00000000000000000000000000000000 g
b0 h
b000000000000 i
b0 j
b1 k
b00000000000000000000000000000000 l
b11111111111111111111111100110110 m
b0000000000 n
b00000000000000000000000000000000 o
b0000000000 p
#2
b00000000000000000000000000100000 !
b00000000000000000000000000000000 "
b00000000000000000000000000000000 #
b00000000000000000000000000000000 $
b00000000000000000000000000000000 %
b00000000000000000000000000000000 &
b00000000000000000000000000000000 '
b00000000000000000000000000000000 (
b00000000000000000000000000000000 )
b000001 *
b010000 +
b00000000000000000000000000000101 ,
b0 -
b0 .
b0 /
b0 0
b0 1
b0001 2
b1 3
b1 4
b010 5
b000 6
b000 7
b0 8
b0 9
b0 :
b0 ;
b0 <
b00000000000000000000000000000000 =
b00000000000000000000000000000000 >
b0 ?
b00000000000000000000000000000000 @
b00000000000000000000000000000000 A
b0 B
b0 C
b00000000000000000000000000000000 D
b0 E
b0 F
b00000000000000000000000000000000 G
b0 H
b0 I
b00000000000000000000000000000000 J
b0 K
b0 L
b00000000000000000000000000000000 M
b00000000000000000000000000000000 N
b0 O
b0 P
b00000000000000000000000000000000 Q
b0 R
b0 S
b00000000000000000000000000000000 T
b00000000000000000000000000000000 U
b0 V
b0 W
b00000000000000000000000000000000 X
b0 Y
b00000000000000000000000000000000 Z
b0 [
b00000000000000000000000000000000 \
b00000000000000000000000000000000 ]
b0 ^
b11111111111111111111111100110110 _
b0 `
b00000000000000000000000000000000 a
b00000000000000000000000000000000 b
b0 c
b00000000000000000000000100100011 d
b0 e
b00000000000000000000000000000000 f
b00000000000000000000000000000000 g
b0 h
b000000000000 i
b0 j
b1 k
b00000000000000000000000000000000 l
b11111111111111111111111100110110 m
b0000000000 n
b00000000000000000000000000000000 o
b0000000000 p
#3
b00000000000000000000000000100000 !
b00000000000000000000000000000101 "
b00000000000000000000000000000000 #
b00000000000000000000000000000000 $
b00000000000000000000000000000000 %
b00000000000000000000000000000000 &
b00000000000000000000000000000000 '
b00000000000000000000000000000000 (
b00000000000000000000000000000000 )
b000010 *
b011011 +
b00000000000000000000000000000001 ,
b0 -
b0 .
b0 /
b0 0
b0 1
b0001 2
b1 3
b1 4
b011 5
b011 6
b000 7
b0 8
b0 9
b0 :
b0 ;
b0 <
b00000000000000000000000000000000 =
b00000000000000000000000000000000 >
b0 ?
b00000000000000000000000000000000 @
b00000000000000000000000000000000 A
b0 B
b0 C
b00000000000000000000000000000000 D
b0 E
b0 F
b00000000000000000000000000000000 G
b0 H
b0 I
b00000000000000000000000000000000 J
b0 K
b0 L
b00000000000000000000000000000000 M
b00000000000000000000000000000000 N
b0 O
b0 P
b00000000000000000000000000000000 Q
b0 R
b0 S
b00000000000000000000000000000000 T
b00000000000000000000000000000000 U
b0 V
b0 W
b00000000000000000000000000000000 X
b0 Y
b00000000000000000000000000000000 Z
b0 [
b00000000000000000000000000000000 \
b00000000000000000000000000000000 ]
b0 ^
b11111111111111111111111100110110 _
b0 `
b00000000000000000000000000000000 a
b00000000000000000000000000000000 b
b0 c
b00000000000000000000000100100011 d
b0 e
b00000000000000000000000000000000 f
b00000000000000000000000000000000 g
b0 h
b000000000000 i
b0 j
b1 k
b00000000000000000000000000000000 l
b11111111111111111111111100110110 m
b0000000001 n
b00000000000000000000000000000000 o
b0000000000 p
#4
b00000000000000000000000000100000 !
b00000000000000000000000000000101 "
b00000000000000000000000000000001 #
b00000000000000000000000000000000 $
b00000000000000000000000000000000 %
b00000000000000000000000000000000 &
b00000000000000000000000000000000 '
b00000000000000000000000000100000 (
b00000000000000000000000000000001 )
b000011 *
b011001 +
b00000000000000000000000000011111 ,
b0 -
b0 .
b0 /
b0 0
b0 1
b0010 2
b0 3
b1 4
b111 5
b001 6
b011 7
b0 8
b0 9
b0 :
b0 ;
b0 <
b00000000000000000000000000000000 =
b00000000000000000000000000000000 >
b0 ?
b00000000000000000000000000000000 @
b00000000000000000000000000000000 A
b0 B
b0 C
b00000000000000000000000000000000 D
b0 E
b0 F
b00000000000000000000000000000000 G
b0 H
b0 I
b00000000000000000000000000000000 J
b0 K
b0 L
b00000000000000000000000000000000 M
b00000000000000000000000000000000 N
b0 O
b0 P
b00000000000000000000000000000000 Q
b0 R
b0 S
b00000000000000000000000000000000 T
b00000000000000000000000000000000 U
b0 V
b0 W
b00000000000000000000000000000000 X
b0 Y
b00000000000000000000000000000000 Z
b0 [
b00000000000000000000000000000000 \
b00000000000000000000000000000000 ]
b0 ^
b11111111111111111111111100110110 _
b0 `
b00000000000000000000000000000000 a
b00000000000000000000000000000000 b
b0 c
b00000000000000000000000100100011 d
b0 e
b00000000000000000000000000000000 f
b00000000000000000000000000000000 g
b0 h
b000000000000 i
b0 j
b1 k
b00000000000000000000000000000000 l
b11111111111111111111111100110110 m
b0000000010 n
b00000000000000000000000000000000 o
b0000000000 p
#5
b00000000000000000000000000100000 !
b00000000000000000000000000000101 "
b00000000000000000000000000000001 #
b00000000000000000000000000000000 $
b00000000000000000000000000000000 %
b00000000000000000000000000000000 &
b00000000000000000000000000011111 '
b00000000000000000000000000000000 (
b00000000000000000000000000000000 )
b000100 *
b001000 +
b00000000000000000000000000000001 ,
b0 -
b0 .
b0 /
b0 0
b1 1
b0000 2
b0 3
b0 4
b001 5
b000 6
b000 7
b0 8
b0 9
b0 :
b0 ;
b0 <
b00000000000000000000000000000000 =
b00000000000000000000000000000000 >
b0 ?
b00000000000000000000000000000000 @
b00000000000000000000000000000000 A
b0 B
b0 C
b00000000000000000000000000000000 D
b0 E
b0 F
b00000000000000000000000000000000 G
b0 H
b0 I
b00000000000000000000000000000000 J
b0 K
b0 L
b00000000000000000000000000000000 M
b00000000000000000000000000000000 N
b0 O
b0 P
b00000000000000000000000000000000 Q
b0 R
b0 S
b00000000000000000000000000000000 T
b00000000000000000000000000000000 U
b0 V
b0 W
b00000000000000000000000000000000 X
b0 Y
b00000000000000000000000000000000 Z
b0 [
b00000000000000000000000000000000 \
b00000000000000000000000000000000 ]
b0 ^
b11111111111111111111111100110110 _
b0 `
b00000000000000000000000000000000 a
b00000000000000000000000000000000 b
b0 c
b00000000000000000000000100100011 d
b0 e
b00000000000000000000000000000000 f
b00000000000000000000000000000000 g
b0 h
b000000000000 i
b0 j
b1 k
b00000000000000000000000000000000 l
b11111111111111111111111100110110 m
b0000000011 n
b00000000000000000000000000000000 o
b0000000000 p
#6
b00000000000000000000000000100000 !
b00000000000000000000000000000101 "
b00000000000000000000000000000001 #
b00000000000000000000000000000000 $
b00000000000000000000000000000000 %
b00000000000000000000000000000000 &
b00000000000000000000000000011111 '
b00000000000000000000000000000001 (
b00000000000000000000000000000000 )
b000101 *
b000011 +
b00000000000000000000000000000001 ,
b0 -
b0 .
b0 /
b0 0
b0 1
b0000 2
b0 3
b1 4
b100 5
b011 6
b000 7
b1 8
b0 9
b0 :
b0 ;
b1 <
b00000000000000000000000000000001 =
b00100000000000000000000000000001 >
b0 ?
b00000000000000000000000000000000 @
b00000000000000000000000000000000 A
b0 B
b0 C
b00000000000000000000000000000000 D
b0 E
b0 F
b00000000000000000000000000000000 G
b0 H
b0 I
b00000000000000000000000000000000 J
b0 K
b0 L
b00000000000000000000000000000000 M
b00000000000000000000000000000000 N
b0 O
b0 P
b00000000000000000000000000000000 Q
b0 R
b0 S
b00000000000000000000000000000000 T
b00000000000000000000000000000000 U
b0 V
b0 W
b00000000000000000000000000000000 X
b0 Y
b00000000000000000000000000000000 Z
b0 [
b00000000000000000000000000000000 \
b00000000000000000000000000000000 ]
b0 ^
b11111111111111111111111100110110 _
b0 `
b00000000000000000000000000000000 a
b00000000000000000000000000000000 b
b0 c
b00000000000000000000000100100011 d
b0 e
b00000000000000000000000000000000 f
b00000000000000000000000000000000 g
b0 h
b000000000000 i
b0 j
b1 k
b00000000000000000000000000000000 l
b11111111111111111111111100110110 m
b0000000100 n
b00000000000000000000000000000000 o
b0000000000 p
#7
b00000000000000000000000000100000 !
b00000000000000000000000000000101 "
b00000000000000000000000000000001 #
b00000000000000000000000000000001 $
b00000000000000000000000000000000 %
b00000000000000000000000000000000 &
b00000000000000000000000000011111 '
b00000000000000000000000000000000 (
b00000000000000000000000000000001 )
b000110 *
b001101 +
b00000000000000000000000000000001 ,
b0 -
b0 .
b0 /
b0 0
b0 1
b0001 2
b0 3
b1 4
b101 5
b101 6
b100 7
b0 8
b0 9
b0 :
b0 ;
b0 <
b00000000000000000000000000000000 =
b00000000000000000000000000000000 >
b1 ?
b00000000000000000000000000000000 @
b00000000000000000000000000000000 A
b0 B
b0 C
b00000000000000000000000000000000 D
b0 E
b1 F
b00000000000000000000000000000000 G
b0 H
b0 I
b00000000000000000000000000000000 J
b0 K
b1 L
b00000000000000000000000000000000 M
b00000000000000000000000000000000 N
b0 O
b0 P
b00000000000000000000000000000000 Q
b0 R
b1 S
b00000000000000000000000000000000 T
b00000000000000000000000000000000 U
b0 V
b0 W
b00000000000000000000000000000000 X
b0 Y
b00000000000000000000000000000000 Z
b0 [
b00000000000000000000000000000000 \
b00000000000000000000000000000000 ]
b0 ^
b11111111111111111111111100110110 _
b0 `
b00000000000000000000000000000000 a
b00000000000000000000000000000000 b
b0 c
b00000000000000000000000100100011 d
b0 e
b00000000000000000000000000000000 f
b00000000000000000000000000000000 g
b0 h
b000000000000 i
b0 j
b1 k
b00000000000000000000000000000000 l
b11111111111111111111111100110110 m
b0000000101 n
b00000000000000000000000000000000 o
b0000000000 p
#8
b00000000000000000000000000100000 !
b00000000000000000000000000000101 "
b00000000000000000000000000000001 #
b00000000000000000000000000000001 $
b00000000000000000000000000000001 %
b00000000000000000000000000000000 &
b00000000000000000000000000011111 '
b00000000000000000000000000000001 (
b00000000000000000000000000000001 )
b000110 *
b001101 +
b00000000000000000000000000000010 ,
b0 -
b0 .
b0 /
b0 0
b0 1
b0001 2
b0 3
b1 4
b101 5
b101 6
b100 7
b0 8
b0 9
b0 :
b0 ;
b0 <
b00000000000000000000000000000000 =
b00000000000000000000000000000000 >
b1 ?
b00000000000000000000000000000000 @
b00000000000000000000000000000000 A
b0 B
b0 C
b00000000000000000000000000000000 D
b0 E
b1 F
b00000000000000000000000000000000 G
b0 H
b0 I
b00000000000000000000000000000000 J
b0 K
b1 L
b00000000000000000000000000000000 M
b00000000000000000000000000000000 N
b0 O
b0 P
b00000000000000000000000000000000 Q
b0 R
b1 S
b00000000000000000000000000000000 T
b00000000000000000000000000000000 U
b0 V
b0 W
b00000000000000000000000000000000 X
b0 Y
b00000000000000000000000000000000 Z
b0 [
b00000000000000000000000000000000 \
b00000000000000000000000000000000 ]
b0 ^
b11111111111111111111111100110110 _
b0 `
b00000000000000000000000000000000 a
b00000000000000000000000000000000 b
b0 c
b00000000000000000000000100100011 d
b0 e
b00000000000000000000000000000000 f
b00000000000000000000000000000000 g
b0 h
b000000000000 i
b0 j
b1 k
b00000000000000000000000000000000 l
b11111111111111111111111100110110 m
b0000000110 n
b00000000000000000000000000000000 o
b0000000000 p
#9
b00000000000000000000000000100000 !
b00000000000000000000000000000101 "
b00000000000000000000000000000001 #
b00000000000000000000000000000001 $
b00000000000000000000000000000010 %
b00000000000000000000000000000000 &
b00000000000000000000000000011111 '
b00000000000000000000000000000101 (
b00000000000000000000000000000000 )
b000111 *
b000010 +
b00000000000000000000000000000001 ,
b0 -
b0 .
b1 /
b0 0
b0 1
b0000 2
b0 3
b0 4
b000 5
b010 6
b000 7
b0 8
b0 9
b0 :
b0 ;
b0 <
b00000000000000000000000000000000 =
b00000000000000000000000000000000 >
b1 ?
b00000000000000000000000000000000 @
b00000000000000000000000000000000 A
b0 B
b0 C
b00000000000000000000000000000000 D
b0 E
b1 F
b00000000000000000000000000000000 G
b0 H
b0 I
b00000000000000000000000000000000 J
b0 K
b1 L
b00000000000000000000000000000000 M
b00000000000000000000000000000000 N
b0 O
b0 P
b00000000000000000000000000000000 Q
b0 R
b1 S
b00000000000000000000000000000000 T
b00000000000000000000000000000000 U
b0 V
b0 W
b00000000000000000000000000000000 X
b0 Y
b00000000000000000000000000000000 Z
b0 [
b00000000000000000000000000000000 \
b00000000000000000000000000000000 ]
b0 ^
b11111111111111111111111100110110 _
b0 `
b00000000000000000000000000000000 a
b00000000000000000000000000000000 b
b0 c
b00000000000000000000000100100011 d
b0 e
b00000000000000000000000000000000 f
b00000000000000000000000000000000 g
b0 h
b000000000000 i
b0 j
b1 k
b00000000000000000000000000000000 l
b11111111111111111111111100110110 m
b0000000111 n
b00000000000000000000000000000000 o
b0000000000 p
#10
b00000000000000000000000000100000 !
b00000000000000000000000000000101 "
b00000000000000000000000000000001 #
b00000000000000000000000000000001 $
b00000000000000000000000000000010 %
b00000000000000000000000000000000 &
b00000000000000000000000000011111 '
b00000000000000000000000000000001 (
b00000000000000000000000000000000 )
b000010 *
b011011 +
b00000000000000000000000000000010 ,
b0 -
b0 .
b0 /
b0 0
b0 1
b0001 2
b1 3
b1 4
b011 5
b011 6
b000 7
b0 8
b0 9
b0 :
b0 ;
b0 <
b00000000000000000000000000000000 =
b00000000000000000000000000000000 >
b1 ?
b00000000000000000000000000000000 @
b00000000000000000000000000000000 A
b0 B
b0 C
b00000000000000000000000000000000 D
b0 E
b1 F
b00000000000000000000000000000000 G
b0 H
b0 I
b00000000000000000000000000000000 J
b0 K
b1 L
b00000000000000000000000000000000 M
b00000000000000000000000000000000 N
b0 O
b0 P
b00000000000000000000000000000000 Q
b0 R
b1 S
b00000000000000000000000000000000 T
b00000000000000000000000000000000 U
b0 V
b0 W
b00000000000000000000000000000000 X
b0 Y
b00000000000000000000000000000000 Z
b0 [
b00000000000000000000000000000000 \
b00000000000000000000000000000000 ]
b0 ^
b11111111111111111111111100110110 _
b0 `
b00000000000000000000000000000000 a
b00000000000000000000000000000000 b
b0 c
b00000000000000000000000100100011 d
b0 e
b00000000000000000000000000000000 f
b00000000000000000000000000000000 g
b0 h
b000000000000 i
b0 j
b1 k
b00000000000000000000000000000000 l
b11111111111111111111111100110110 m
b0000001000 n
b00000000000000000000000000000000 o
b0000000000 p
#11
b00000000000000000000000000100000 !
b00000000000000000000000000000101 "
b00000000000000000000000000000010 #
b00000000000000000000000000000001 $
b00000000000000000000000000000010 %
b00000000000000000000000000000000 &
b00000000000000000000000000011111 '
b00000000000000000000000000100000 (
b00000000000000000000000000000010 )
b000011 *
b011001 +
b00000000000000000000000000011110 ,
b0 -
b0 .
b0 /
b0 0
b0 1
b0010 2
b0 3
b1 4
b111 5
b001 6
b011 7
b0 8
b0 9
b0 :
b0 ;
b0 <
b00000000000000000000000000000000 =
b00000000000000000000000000000000 >
b1 ?
b00000000000000000000000000000000 @
b00000000000000000000000000000000 A
b0 B
b0 C
b00000000000000000000000000000000 D
b0 E
b1 F
b00000000000000000000000000000000 G
b0 H
b0 I
b00000000000000000000000000000000 J
b0 K
b1 L
b00000000000000000000000000000000 M
b00000000000000000000000000000000 N
b0 O
b0 P
b00000000000000000000000000000000 Q
b0 R
b1 S
b00000000000000000000000000000000 T
b00000000000000000000000000000000 U
b0 V
b0 W
b00000000000000000000000000000000 X
b0 Y
b00000000000000000000000000000000 Z
b0 [
b00000000000000000000000000000000 \
b00000000000000000000000000000000 ]
b0 ^
b11111111111111111111111100110110 _
b0 `
b00000000000000000000000000000000 a
b00000000000000000000000000000000 b
b0 c
b00000000000000000000000100100011 d
b0 e
b00000000000000000000000000000000 f
b00000000000000000000000000000000 g
b0 h
b000000000000 i
b0 j
b1 k
b00000000000000000000000000000000 l
b11111111111111111111111100110110 m
b0000001001 n
b00000000000000000000000000000000 o
b0000000000 p
#12
b00000000000000000000000000100000 !
b00000000000000000000000000000101 "
b00000000000000000000000000000010 #
b00000000000000000000000000000001 $
b00000000000000000000000000000010 %
b00000000000000000000000000000000 &
b00000000000000000000000000011110 '
b00000000000000000000000000000000 (
b00000000000000000000000000000000 )
b000100 *
b001000 +
b00000000000000000000000000000001 ,
b0 -
b0 .
b0 /
b0 0
b1 1
b0000 2
b0 3
b0 4
b001 5
b000 6
b000 7
b0 8
b0 9
b0 :
b0 ;
b0 <
b00000000000000000000000000000000 =
b00000000000000000000000000000000 >
b1 ?
b00000000000000000000000000000000 @
b00000000000000000000000000000000 A
b0 B
b0 C
b00000000000000000000000000000000 D
b0 E
b1 F
b00000000000000000000000000000000 G
b0 H
b0 I
b00000000000000000000000000000000 J
b0 K
b1 L
b00000000000000000000000000000000 M
b00000000000000000000000000000000 N
b0 O
b0 P
b00000000000000000000000000000000 Q
b0 R
b1 S
b00000000000000000000000000000000 T
b00000000000000000000000000000000 U
b0 V
b0 W
b00000000000000000000000000000000 X
b0 Y
b00000000000000000000000000000000 Z
b0 [
b00000000000000000000000000000000 \
b00000000000000000000000000000000 ]
b0 ^
b11111111111111111111111100111001 _
b0 `
b00000000000000000000000000000000 a
b00000000000000000000000000000000 b
b0 c
b00000000000000000000000100100011 d
b0 e
b00000000000000000000000000000000 f
b00000000000000000000000000000000 g
b0 h
b000000000000 i
b0 j
b1 k
b00000000000000000000000000000000 l
b11111111111111111111111100111001 m
b0000000000 n
b00000000000000000000000000000000 o
b0000000000 p
#13
b00000000000000000000000000100000 !
b00000000000000000000000000000101 "
b00000000000000000000000000000010 #
b00000000000000000000000000000001 $
b00000000000000000000000000000010 %
b00000000000000000000000000000000 &
b00000000000000000000000000011110 '
b00000000000000000000000000000010 (
b00000000000000000000000000000000 )
b000101 *
b000011 +
b00000000000000000000000000000001 ,
b0 -
b0 .
b0 /
b0 0
b0 1
b0000 2
b0 3
b1 4
b100 5
b011 6
b000 7
b1 8
b0 9
b0 :
b0 ;
b1 <
b00000000000000000000000000000010 =
b00100000000000000000000000000010 >
b1 ?
b00100000000000000000000000000010 @
b00000000000000000000000000000010 A
b0 B
b0 C
b00000000000000000000000000000000 D
b0 E
b1 F
b00100000000000000000000000000010 G
b0 H
b0 I
b00000000000000000000000000000000 J
b0 K
b1 L
b00100000000000000000000000000010 M
b00000000000000000000000000000010 N
b0 O
b0 P
b00000000000000000000000000000000 Q
b0 R
b1 S
b00100000000000000000000000000010 T
b00000000000000000000000000000010 U
b0 V
b0 W
b00000000000000000000000000000000 X
b0 Y
b00000000000000000000000000000000 Z
b0 [
b00000000000000000000000000000000 \
b00000000000000000000000000000000 ]
b0 ^
b11111111111111111111111100111001 _
b0 `
b00000000000000000000000000000000 a
b00000000000000000000000000000000 b
b0 c
b00000000000000000000000100100011 d
b0 e
b00000000000000000000000000000000 f
b00000000000000000000000000000000 g
b0 h
b000000000000 i
b0 j
b1 k
b00000000000000000000000000000000 l
b11111111111111111111111100111001 m
b0000000001 n
b00000000000000000000000000000000 o
b0000000000 p
#14
b00000000000000000000000000100000 !
b00000000000000000000000000000101 "
b00000000000000000000000000000010 #
b00000000000000000000000000000001 $
b00000000000000000000000000000010 %
b00000000000000000000000000000000 &
b00000000000000000000000000011110 '
b00000000000000000000000000000010 (
b00000000000000000000000000000001 )
b000110 *
b001101 +
b00000000000000000000000000000011 ,
b0 -
b0 .
b0 /
b0 0
b0 1
b0001 2
b0 3
b1 4
b101 5
b101 6
b100 7
b0 8
b0 9
b0 :
b0 ;
b0 <
b00000000000000000000000000000000 =
b00000000000000000000000000000000 >
b1 ?
b00000000000000000000000000000000 @
b00000000000000000000000000000000 A
b1 B
b0 C
b00000000000000000000000000000000 D
b0 E
b1 F
b00000000000000000000000000000000 G
b0 H
b0 I
b00000000000000000000000000000000 J
b0 K
b1 L
b00000000000000000000000000000000 M
b00000000000000000000000000000000 N
b0 O
b0 P
b00000000000000000000000000000000 Q
b0 R
b1 S
b00000000000000000000000000000000 T
b00000000000000000000000000000000 U
b0 V
b0 W
b00000000000000000000000000000000 X
b0 Y
b00000000000000000000000000000000 Z
b0 [
b00000000000000000000000000000000 \
b00000000000000000000000000000000 ]
b0 ^
b11111111111111111111111100111001 _
b0 `
b00000000000000000000000000000000 a
b00000000000000000000000000000000 b
b0 c
b00000000000000000000000100100011 d
b0 e
b00000000000000000000000000000000 f
b00000000000000000000000000000000 g
b0 h
b000000000000 i
b0 j
b1 k
b00000000000000000000000000000000 l
b11111111111111111111111100111001 m
b0000000010 n
b00000000000000000000000000000000 o
b0000000000 p
#15
b00000000000000000000000000100000 !
b00000000000000000000000000000101 "
b00000000000000000000000000000010 #
b00000000000000000000000000000001 $
b00000000000000000000000000000011 %
b00000000000000000000000000000000 &
b00000000000000000000000000011110 '
b00000000000000000000000000000011 (
b00000000000000000000000000000001 )
b000110 *
b001101 +
b00000000000000000000000000000100 ,
b0 -
b0 .
b0 /
b0 0
b0 1
b0001 2
b0 3
b1 4
b101 5
b101 6
b100 7
b0 8
b0 9
b0 :
b0 ;
b0 <
b00000000000000000000000000000000 =
b00000000000000000000000000000000 >
b1 ?
b00000000000000000000000000000000 @
b00000000000000000000000000000000 A
b1 B
b0 C
b00000000000000000000000000000000 D
b0 E
b1 F
b00000000000000000000000000000000 G
b0 H
b0 I
b00000000000000000000000000000000 J
b0 K
b1 L
b00000000000000000000000000000000 M
b00000000000000000000000000000000 N
b0 O
b0 P
b00000000000000000000000000000000 Q
b0 R
b1 S
b00000000000000000000000000000000 T
b00000000000000000000000000000000 U
b0 V
b0 W
b00000000000000000000000000000000 X
b0 Y
b00000000000000000000000000000000 Z
b0 [
b00000000000000000000000000000000 \
b00000000000000000000000000000000 ]
b0 ^
b11111111111111111111111100111001 _
b0 `
b00000000000000000000000000000000 a
b00000000000000000000000000000000 b
b0 c
b00000000000000000000000100100011 d
b0 e
b00000000000000000000000000000000 f
b00000000000000000000000000000000 g
b0 h
b000000000000 i
b0 j
b1 k
b00000000000000000000000000000000 l
b11111111111111111111111100111001 m
b0000000011 n
b00000000000000000000000000000000 o
b0000000000 p
#16
b00000000000000000000000000100000 !
b00000000000000000000000000000101 "
b00000000000000000000000000000010 #
b00000000000000000000000000000001 $
b00000000000000000000000000000100 %
b00000000000000000000000000000000 &
b00000000000000000000000000011110 '
b00000000000000000000000000000101 (
b00000000000000000000000000000000 )
b000111 *
b000010 +
b00000000000000000000000000000001 ,
b0 -
b0 .
b1 /
b0 0
b0 1
b0000 2
b0 3
b0 4
b000 5
b010 6
b000 7
b0 8
b0 9
b0 :
b0 ;
b0 <
b00000000000000000000000000000000 =
b00000000000000000000000000000000 >
b1 ?
b00000000000000000000000000000000 @
b00000000000000000000000000000000 A
b1 B
b0 C
b00000000000000000000000000000000 D
b0 E
b1 F
b00000000000000000000000000000000 G
b0 H
b0 I
b00000000000000000000000000000000 J
b0 K
b1 L
b00000000000000000000000000000000 M
b00000000000000000000000000000000 N
b0 O
b0 P
b00000000000000000000000000000000 Q
b0 R
b1 S
b00000000000000000000000000000000 T
b00000000000000000000000000000000 U
b0 V
b0 W
b00000000000000000000000000000000 X
b0 Y
b00000000000000000000000000000000 Z
b0 [
b00000000000000000000000000000000 \
b00000000000000000000000000000000 ]
b0 ^
b11111111111111111111111100111001 _
b0 `
b00000000000000000000000000000000 a
b00000000000000000000000000000000 b
b0 c
b00000000000000000000000100100011 d
b0 e
b00000000000000000000000000000000 f
b00000000000000000000000000000000 g
b0 h
b000000000000 i
b0 j
b1 k
b00000000000000000000000000000000 l
b11111111111111111111111100111001 m
b0000000100 n
b00000000000000000000000000000000 o
b0000000000 p
