Assignment2/src/TRACE.vcd
$var reg 	4 !	Control.operation  $end
$var reg 	3 "	Control.savelocation  $end
$var reg 	3 #	Control.source1  $end
$var reg 	3 $	Control.source2  $end
$var reg 	32 %	ALU.A  $end
$var reg 	32 &	ALU.B  $end
$var reg 	4 '	ALU.Select  $end
$var reg 	32 (	Register.r1  $end
$var reg 	32 )	Register.r2  $end
$var reg 	32 *	Register.r3  $end
$var reg 	32 +	Register.r4  $end
$var reg 	32 ,	Register.r5  $end
$var reg 	32 -	Register.r6  $end
$var reg 	32 .	Register.r7  $end
$var reg 	32 /	Register.a  $end
$var reg 	32 0	Register.b  $end
$var reg 	6 1	PC.PCr  $end
$var reg 	6 2	PC.pc_out  $end
$var reg 	6 3	PC.jump_target  $end
$var reg 	1 4	PC.sel  $end
$var reg 	32 5	CPU.aluOut  $end
$var reg 	1 6	CPU.aluZero  $end
$var reg 	1 7	CPU.aluNeg  $end
$var reg 	1 8	CPU.branch  $end
$var reg 	1 9	CPU.bneg  $end
$var reg 	1 :	CPU.bzero  $end
$var reg 	4 ;	CPU.aluSelect  $end
$var reg 	1 <	CPU.addImmediate  $end
$var reg 	1 =	CPU.storeEnable  $end
$var reg 	3 >	CPU.storeSelect  $end
$var reg 	3 ?	CPU.aSel  $end
$var reg 	3 @	CPU.bSel  $end
$var reg 	1 A	CPU.extLoad  $end
$var reg 	1 B	CPU.extStore  $end
$var reg 	1 C	CPU.extSensor  $end
$var reg 	1 D	CPU.extLCD  $end
$var reg 	1 E	CPU.sys_stall  $end
$var reg 	32 F	CPU.M_datain  $end
$var reg 	32 G	CPU.M_cmd  $end
$var reg 	32 H	CPU.M_dataout  $end
$var reg 	1 I	CPU.M_dataoutrdy  $end
$var reg 	1 J	bus.reqDataMem  $end
$var reg 	32 K	bus.cmdDataMem  $end
$var reg 	32 L	bus.datainDataMem  $end
$var reg 	1 M	bus.ackDataMem  $end
$var reg 	1 N	bus.dataRdyDataMem  $end
$var reg 	32 O	bus.dataoutDataMem  $end
$var reg 	1 P	bus.waitDataMem  $end
$var reg 	1 Q	bus.reqSensor  $end
$var reg 	32 R	bus.cmdSensor  $end
$var reg 	1 S	bus.ackSensor  $end
$var reg 	1 T	bus.dataRdySensor  $end
$var reg 	32 U	bus.dataoutSensor  $end
$var reg 	1 V	bus.waitSensor  $end
$var reg 	1 W	bus.reqOutput  $end
$var reg 	32 X	bus.cmdOutput  $end
$var reg 	32 Y	bus.datainOutput  $end
$var reg 	1 Z	bus.ackOutput  $end
$var reg 	1 [	bus.dataRdyOutput  $end
$var reg 	32 \	bus.dataoutOutput  $end
$var reg 	1 ]	bus.waitOutput  $end
$var reg 	1 ^	bus.reqCPU  $end
$var reg 	32 _	bus.cmdCPU  $end
$var reg 	32 `	bus.dataoutCPU  $end
$var reg 	1 a	bus.ackCPU  $end
$var reg 	1 b	bus.dataRdyCPU  $end
$var reg 	32 c	bus.datainCPU  $end
$var reg 	1 d	bus.waitCPU  $end
$var reg 	32 e	bus_toplevel.DM_datain  $end
$var reg 	1 f	bus_toplevel.DM_datainrdy  $end
$var reg 	32 g	bus_toplevel.DM_dataout  $end
$var reg 	32 h	bus_toplevel.DM_cmdout  $end
$var reg 	1 i	bus_toplevel.DM_dataoutrdy  $end
$var reg 	32 j	bus_toplevel.SS_datain  $end
$var reg 	1 k	bus_toplevel.SS_datainrdy  $end
$var reg 	32 l	bus_toplevel.SS_dataout  $end
$var reg 	32 m	bus_toplevel.SS_cmdout  $end
$var reg 	1 n	bus_toplevel.SS_dataoutrdy  $end
$var reg 	32 o	bus_toplevel.OP_datain  $end
$var reg 	1 p	bus_toplevel.OP_datainrdy  $end
$var reg 	32 q	bus_toplevel.OP_dataout  $end
$var reg 	32 r	bus_toplevel.OP_cmdout  $end
$var reg 	1 s	bus_toplevel.OP_dataoutrdy  $end
$var reg 	12 t	DataMem.address  $end
$var reg 	1 u	DataMem.wr  $end
$var reg 	1 v	DataMem.rd  $end
$var reg 	32 w	DataMem.idata  $end
$var reg 	32 x	Sensor.odata  $end
$var reg 	10 y	Sensor.c  $end
$var reg 	32 z	Output.FilterOut  $end
$var reg 	10 {	Output.count  $end
$enddefinitions $end 
$enddefinitions $end 
#1
b0001 !
b001 "
b000 #
b000 $
b00000000000000000000000000000000 %
b00000000000000000000000000100000 &
b0001 '
b00000000000000000000000000000000 (
b00000000000000000000000000000000 )
b00000000000000000000000000000000 *
b00000000000000000000000000000000 +
b00000000000000000000000000000000 ,
b00000000000000000000000000000000 -
b00000000000000000000000000000000 .
b00000000000000000000000000000000 /
b00000000000000000000000000000000 0
b000000 1
b000001 2
b001000 3
b0 4
b00000000000000000000000000100000 5
b0 6
b0 7
b0 8
b0 9
b0 :
b0001 ;
b1 <
b1 =
b001 >
b000 ?
b000 @
b0 A
b0 B
b0 C
b0 D
b0 E
b00000000000000000000000000000000 F
b00000000000000000000000000000000 G
b00000000000000000000000000000000 H
b0 I
b0 J
b00000000000000000000000000000000 K
b00000000000000000000000000000000 L
b0 M
b0 N
b00000000000000000000000000000000 O
b0 P
b0 Q
b00000000000000000000000000000000 R
b0 S
b0 T
b00000000000000000000000000000000 U
b0 V
b0 W
b00000000000000000000000000000000 X
b00000000000000000000000000000000 Y
b0 Z
b0 [
b00000000000000000000000000000000 \
b0 ]
b0 ^
b00000000000000000000000000000000 _
b00000000000000000000000000000000 `
b0 a
b0 b
b00000000000000000000000000000000 c
b0 d
b00000000000000000000000000000000 e
b0 f
b00000000000000000000000000000000 g
b00000000000000000000000000000000 h
b0 i
b11111111111111111111111100110110 j
b0 k
b00000000000000000000000000000000 l
b00000000000000000000000000000000 m
b0 n
b00000000000000000000000100100011 o
b0 p
b00000000000000000000000000000000 q
b00000000000000000000000000000000 r
b0 s
b000000000000 t
b0 u
b1 v
b00000000000000000000000000000000 w
b11111111111111111111111100110110 x
b0000000000 y
b00000000000000000000000000000000 z
b0000000000 {
#2
b0001 !
b010 "
b000 #
b000 $
b00000000000000000000000000000000 %
b00000000000000000000000000000101 &
b0001 '
b00000000000000000000000000100000 (
b00000000000000000000000000000000 )
b00000000000000000000000000000000 *
b00000000000000000000000000000000 +
b00000000000000000000000000000000 ,
b00000000000000000000000000000000 -
b00000000000000000000000000000000 .
b00000000000000000000000000000000 /
b00000000000000000000000000000000 0
b000001 1
b000010 2
b010000 3
b0 4
b00000000000000000000000000000101 5
b0 6
b0 7
b0 8
b0 9
b0 :
b0001 ;
b1 <
b1 =
b010 >
b000 ?
b000 @
b0 A
b0 B
b0 C
b0 D
b0 E
b00000000000000000000000000000000 F
b00000000000000000000000000000000 G
b00000000000000000000000000000000 H
b0 I
b0 J
b00000000000000000000000000000000 K
b00000000000000000000000000000000 L
b0 M
b0 N
b00000000000000000000000000000000 O
b0 P
b0 Q
b00000000000000000000000000000000 R
b0 S
b0 T
b00000000000000000000000000000000 U
b0 V
b0 W
b00000000000000000000000000000000 X
b00000000000000000000000000000000 Y
b0 Z
b0 [
b00000000000000000000000000000000 \
b0 ]
b0 ^
b00000000000000000000000000000000 _
b00000000000000000000000000000000 `
b0 a
b0 b
b00000000000000000000000000000000 c
b0 d
b00000000000000000000000000000000 e
b0 f
b00000000000000000000000000000000 g
b00000000000000000000000000000000 h
b0 i
b11111111111111111111111100110110 j
b0 k
b00000000000000000000000000000000 l
b00000000000000000000000000000000 m
b0 n
b00000000000000000000000100100011 o
b0 p
b00000000000000000000000000000000 q
b00000000000000000000000000000000 r
b0 s
b000000000000 t
b0 u
b1 v
b00000000000000000000000000000000 w
b11111111111111111111111100110110 x
b0000000000 y
b00000000000000000000000000000000 z
b0000000000 {
#3
b0001 !
b011 "
b011 #
b000 $
b00000000000000000000000000000000 %
b00000000000000000000000000000001 &
b0001 '
b00000000000000000000000000100000 (
b00000000000000000000000000000101 )
b00000000000000000000000000000000 *
b00000000000000000000000000000000 +
b00000000000000000000000000000000 ,
b00000000000000000000000000000000 -
b00000000000000000000000000000000 .
b00000000000000000000000000000000 /
b00000000000000000000000000000000 0
b000010 1
b000011 2
b011011 3
b0 4
b00000000000000000000000000000001 5
b0 6
b0 7
b0 8
b0 9
b0 :
b0001 ;
b1 <
b1 =
b011 >
b011 ?
b000 @
b0 A
b0 B
b0 C
b0 D
b0 E
b00000000000000000000000000000000 F
b00000000000000000000000000000000 G
b00000000000000000000000000000000 H
b0 I
b0 J
b00000000000000000000000000000000 K
b00000000000000000000000000000000 L
b0 M
b0 N
b00000000000000000000000000000000 O
b0 P
b0 Q
b00000000000000000000000000000000 R
b0 S
b0 T
b00000000000000000000000000000000 U
b0 V
b0 W
b00000000000000000000000000000000 X
b00000000000000000000000000000000 Y
b0 Z
b0 [
b00000000000000000000000000000000 \
b0 ]
b0 ^
b00000000000000000000000000000000 _
b00000000000000000000000000000000 `
b0 a
b0 b
b00000000000000000000000000000000 c
b0 d
b00000000000000000000000000000000 e
b0 f
b00000000000000000000000000000000 g
b00000000000000000000000000000000 h
b0 i
b11111111111111111111111100110110 j
b0 k
b00000000000000000000000000000000 l
b00000000000000000000000000000000 m
b0 n
b00000000000000000000000100100011 o
b0 p
b00000000000000000000000000000000 q
b00000000000000000000000000000000 r
b0 s
b000000000000 t
b0 u
b1 v
b00000000000000000000000000000000 w
b11111111111111111111111100110110 x
b0000000001 y
b00000000000000000000000000000000 z
b0000000000 {
#4
b0010 !
b111 "
b001 #
b011 $
b00000000000000000000000000100000 %
b00000000000000000000000000000001 &
b0010 '
b00000000000000000000000000100000 (
b00000000000000000000000000000101 )
b00000000000000000000000000000001 *
b00000000000000000000000000000000 +
b00000000000000000000000000000000 ,
b00000000000000000000000000000000 -
b00000000000000000000000000000000 .
b00000000000000000000000000100000 /
b00000000000000000000000000000001 0
b000011 1
b000100 2
b011001 3
b0 4
b00000000000000000000000000011111 5
b0 6
b0 7
b0 8
b0 9
b0 :
b0010 ;
b0 <
b1 =
b111 >
b001 ?
b011 @
b0 A
b0 B
b0 C
b0 D
b0 E
b00000000000000000000000000000000 F
b00000000000000000000000000000000 G
b00000000000000000000000000000000 H
b0 I
b0 J
b00000000000000000000000000000000 K
b00000000000000000000000000000000 L
b0 M
b0 N
b00000000000000000000000000000000 O
b0 P
b0 Q
b00000000000000000000000000000000 R
b0 S
b0 T
b00000000000000000000000000000000 U
b0 V
b0 W
b00000000000000000000000000000000 X
b00000000000000000000000000000000 Y
b0 Z
b0 [
b00000000000000000000000000000000 \
b0 ]
b0 ^
b00000000000000000000000000000000 _
b00000000000000000000000000000000 `
b0 a
b0 b
b00000000000000000000000000000000 c
b0 d
b00000000000000000000000000000000 e
b0 f
b00000000000000000000000000000000 g
b00000000000000000000000000000000 h
b0 i
b11111111111111111111111100110110 j
b0 k
b00000000000000000000000000000000 l
b00000000000000000000000000000000 m
b0 n
b00000000000000000000000100100011 o
b0 p
b00000000000000000000000000000000 q
b00000000000000000000000000000000 r
b0 s
b000000000000 t
b0 u
b1 v
b00000000000000000000000000000000 w
b11111111111111111111111100110110 x
b0000000010 y
b00000000000000000000000000000000 z
b0000000000 {
#5
b0110 !
b001 "
b000 #
b000 $
b00000000000000000000000000000000 %
b00000000000000000000000000000000 &
b0000 '
b00000000000000000000000000100000 (
b00000000000000000000000000000101 )
b00000000000000000000000000000001 *
b00000000000000000000000000000000 +
b00000000000000000000000000000000 ,
b00000000000000000000000000000000 -
b00000000000000000000000000011111 .
b00000000000000000000000000000000 /
b00000000000000000000000000000000 0
b000100 1
b000101 2
b001000 3
b0 4
b00000000000000000000000000000001 5
b0 6
b0 7
b0 8
b0 9
b1 :
b0000 ;
b0 <
b0 =
b001 >
b000 ?
b000 @
b0 A
b0 B
b0 C
b0 D
b0 E
b00000000000000000000000000000000 F
b00000000000000000000000000000000 G
b00000000000000000000000000000000 H
b0 I
b0 J
b00000000000000000000000000000000 K
b00000000000000000000000000000000 L
b0 M
b0 N
b00000000000000000000000000000000 O
b0 P
b0 Q
b00000000000000000000000000000000 R
b0 S
b0 T
b00000000000000000000000000000000 U
b0 V
b0 W
b00000000000000000000000000000000 X
b00000000000000000000000000000000 Y
b0 Z
b0 [
b00000000000000000000000000000000 \
b0 ]
b0 ^
b00000000000000000000000000000000 _
b00000000000000000000000000000000 `
b0 a
b0 b
b00000000000000000000000000000000 c
b0 d
b00000000000000000000000000000000 e
b0 f
b00000000000000000000000000000000 g
b00000000000000000000000000000000 h
b0 i
b11111111111111111111111100110110 j
b0 k
b00000000000000000000000000000000 l
b00000000000000000000000000000000 m
b0 n
b00000000000000000000000100100011 o
b0 p
b00000000000000000000000000000000 q
b00000000000000000000000000000000 r
b0 s
b000000000000 t
b0 u
b1 v
b00000000000000000000000000000000 w
b11111111111111111111111100110110 x
b0000000011 y
b00000000000000000000000000000000 z
b0000000000 {
#6
b1101 !
b100 "
b011 #
b000 $
b00000000000000000000000000000001 %
b00000000000000000000000000000000 &
b0000 '
b00000000000000000000000000100000 (
b00000000000000000000000000000101 )
b00000000000000000000000000000001 *
b00000000000000000000000000000000 +
b00000000000000000000000000000000 ,
b00000000000000000000000000000000 -
b00000000000000000000000000011111 .
b00000000000000000000000000000001 /
b00000000000000000000000000000000 0
b000101 1
b000101 2
b000011 3
b0 4
b00000000000000000000000000000001 5
b0 6
b0 7
b0 8
b0 9
b0 :
b0000 ;
b0 <
b1 =
b100 >
b011 ?
b000 @
b1 A
b0 B
b0 C
b0 D
b1 E
b00000000000000000000000000000001 F
b00100000000000000000000000000001 G
b00000000000000000000000000000000 H
b0 I
b0 J
b00000000000000000000000000000000 K
b00000000000000000000000000000000 L
b0 M
b0 N
b00000000000000000000000000000000 O
b0 P
b0 Q
b00000000000000000000000000000000 R
b0 S
b0 T
b00000000000000000000000000000000 U
b0 V
b0 W
b00000000000000000000000000000000 X
b00000000000000000000000000000000 Y
b0 Z
b0 [
b00000000000000000000000000000000 \
b0 ]
b0 ^
b00000000000000000000000000000000 _
b00000000000000000000000000000000 `
b0 a
b0 b
b00000000000000000000000000000000 c
b0 d
b00000000000000000000000000000000 e
b0 f
b00000000000000000000000000000000 g
b00000000000000000000000000000000 h
b0 i
b11111111111111111111111100110110 j
b0 k
b00000000000000000000000000000000 l
b00000000000000000000000000000000 m
b0 n
b00000000000000000000000100100011 o
b0 p
b00000000000000000000000000000000 q
b00000000000000000000000000000000 r
b0 s
b000000000000 t
b0 u
b1 v
b00000000000000000000000000000000 w
b11111111111111111111111100110110 x
b0000000100 y
b00000000000000000000000000000000 z
b0000000000 {
#7
b1101 !
b100 "
b011 #
b000 $
b00000000000000000000000000000001 %
b00000000000000000000000000000000 &
b0000 '
b00000000000000000000000000100000 (
b00000000000000000000000000000101 )
b00000000000000000000000000000001 *
b00000000000000000000000000000001 +
b00000000000000000000000000000000 ,
b00000000000000000000000000000000 -
b00000000000000000000000000011111 .
b00000000000000000000000000000001 /
b00000000000000000000000000000000 0
b000101 1
b000101 2
b000011 3
b0 4
b00000000000000000000000000000001 5
b0 6
b0 7
b0 8
b0 9
b0 :
b0000 ;
b0 <
b1 =
b100 >
b011 ?
b000 @
b1 A
b0 B
b0 C
b0 D
b1 E
b00000000000000000000000000000001 F
b00100000000000000000000000000001 G
b00000000000000000000000000000000 H
b0 I
b1 J
b00100000000000000000000000000001 K
b00000000000000000000000000000001 L
b0 M
b0 N
b00000000000000000000000000000000 O
b0 P
b1 Q
b00100000000000000000000000000001 R
b0 S
b0 T
b00000000000000000000000000000000 U
b0 V
b1 W
b00100000000000000000000000000001 X
b00000000000000000000000000000001 Y
b0 Z
b0 [
b00000000000000000000000000000000 \
b0 ]
b1 ^
b00100000000000000000000000000001 _
b00000000000000000000000000000001 `
b0 a
b0 b
b00000000000000000000000000000000 c
b0 d
b00000000000000000000000000000000 e
b0 f
b00000000000000000000000000000000 g
b00000000000000000000000000000000 h
b0 i
b11111111111111111111111100110110 j
b0 k
b00000000000000000000000000000000 l
b00000000000000000000000000000000 m
b0 n
b00000000000000000000000100100011 o
b0 p
b00000000000000000000000000000000 q
b00000000000000000000000000000000 r
b0 s
b000000000000 t
b0 u
b1 v
b00000000000000000000000000000000 w
b11111111111111111111111100110110 x
b0000000101 y
b00000000000000000000000000000000 z
b0000000000 {
#8
b1101 !
b100 "
b011 #
b000 $
b00000000000000000000000000000001 %
b00000000000000000000000000000000 &
b0000 '
b00000000000000000000000000100000 (
b00000000000000000000000000000101 )
b00000000000000000000000000000001 *
b00000000000000000000000000000001 +
b00000000000000000000000000000000 ,
b00000000000000000000000000000000 -
b00000000000000000000000000011111 .
b00000000000000000000000000000001 /
b00000000000000000000000000000000 0
b000101 1
b000101 2
b000011 3
b0 4
b00000000000000000000000000000001 5
b0 6
b0 7
b0 8
b0 9
b0 :
b0000 ;
b0 <
b1 =
b100 >
b011 ?
b000 @
b1 A
b0 B
b0 C
b0 D
b1 E
b00000000000000000000000000000001 F
b00100000000000000000000000000001 G
b00000000000000000000000000000000 H
b0 I
b1 J
b00100000000000000000000000000001 K
b00000000000000000000000000000001 L
b1 M
b0 N
b00000000000000000000000000000000 O
b0 P
b1 Q
b00100000000000000000000000000001 R
b0 S
b0 T
b00000000000000000000000000000000 U
b0 V
b1 W
b00100000000000000000000000000001 X
b00000000000000000000000000000001 Y
b0 Z
b0 [
b00000000000000000000000000000000 \
b0 ]
b1 ^
b00100000000000000000000000000001 _
b00000000000000000000000000000001 `
b1 a
b0 b
b00000000000000000000000000000000 c
b0 d
b00000000000000000000000000000000 e
b0 f
b00000000000000000000000000000001 g
b00100000000000000000000000000001 h
b1 i
b11111111111111111111111100110110 j
b0 k
b00000000000000000000000000000000 l
b00000000000000000000000000000000 m
b0 n
b00000000000000000000000100100011 o
b0 p
b00000000000000000000000000000000 q
b00000000000000000000000000000000 r
b0 s
b000000000000 t
b0 u
b1 v
b00000000000000000000000000000000 w
b11111111111111111111111100110110 x
b0000000110 y
b00000000000000000000000000000000 z
b0000000000 {
#9
b1101 !
b100 "
b011 #
b000 $
b00000000000000000000000000000001 %
b00000000000000000000000000000000 &
b0000 '
b00000000000000000000000000100000 (
b00000000000000000000000000000101 )
b00000000000000000000000000000001 *
b00000000000000000000000000000001 +
b00000000000000000000000000000000 ,
b00000000000000000000000000000000 -
b00000000000000000000000000011111 .
b00000000000000000000000000000001 /
b00000000000000000000000000000000 0
b000101 1
b000101 2
b000011 3
b0 4
b00000000000000000000000000000001 5
b0 6
b0 7
b0 8
b0 9
b0 :
b0000 ;
b0 <
b1 =
b100 >
b011 ?
b000 @
b1 A
b0 B
b0 C
b0 D
b1 E
b00000000000000000000000000000001 F
b00100000000000000000000000000001 G
b00000000000000000000000000000000 H
b0 I
b0 J
b00000000000000000000000000000000 K
b00000000000000000000000000000000 L
b1 M
b0 N
b00000000000000000000000000000000 O
b0 P
b0 Q
b00000000000000000000000000000000 R
b0 S
b0 T
b00000000000000000000000000000000 U
b0 V
b0 W
b00000000000000000000000000000000 X
b00000000000000000000000000000000 Y
b0 Z
b0 [
b00000000000000000000000000000000 \
b0 ]
b0 ^
b00100000000000000000000000000001 _
b00000000000000000000000000000001 `
b1 a
b0 b
b00000000000000000000000000000000 c
b0 d
b00000000000000000000000000000000 e
b0 f
b00000000000000000000000000000000 g
b00000000000000000000000000000000 h
b0 i
b11111111111111111111111100110110 j
b0 k
b00000000000000000000000000000000 l
b00000000000000000000000000000000 m
b0 n
b00000000000000000000000100100011 o
b0 p
b00000000000000000000000000000000 q
b00000000000000000000000000000000 r
b0 s
b000000000001 t
b0 u
b1 v
b00000000000000000000000000000000 w
b11111111111111111111111100110110 x
b0000000111 y
b00000000000000000000000000000000 z
b0000000000 {
#10
b1101 !
b100 "
b011 #
b000 $
b00000000000000000000000000000001 %
b00000000000000000000000000000000 &
b0000 '
b00000000000000000000000000100000 (
b00000000000000000000000000000101 )
b00000000000000000000000000000001 *
b00000000000000000000000000000001 +
b00000000000000000000000000000000 ,
b00000000000000000000000000000000 -
b00000000000000000000000000011111 .
b00000000000000000000000000000001 /
b00000000000000000000000000000000 0
b000101 1
b000101 2
b000011 3
b0 4
b00000000000000000000000000000001 5
b0 6
b0 7
b0 8
b0 9
b0 :
b0000 ;
b0 <
b1 =
b100 >
b011 ?
b000 @
b1 A
b0 B
b0 C
b0 D
b1 E
b00000000000000000000000000000001 F
b00100000000000000000000000000001 G
b00000000000000000000000000000000 H
b0 I
b0 J
b00000000000000000000000000000000 K
b00000000000000000000000000000000 L
b0 M
b0 N
b00000000000000000000000000000000 O
b0 P
b0 Q
b00000000000000000000000000000000 R
b0 S
b0 T
b00000000000000000000000000000000 U
b0 V
b0 W
b00000000000000000000000000000000 X
b00000000000000000000000000000000 Y
b0 Z
b0 [
b00000000000000000000000000000000 \
b0 ]
b0 ^
b00100000000000000000000000000001 _
b00000000000000000000000000000001 `
b0 a
b0 b
b00000000000000000000000000000000 c
b0 d
b00000000000000000000000000000000 e
b0 f
b00000000000000000000000000000000 g
b00000000000000000000000000000000 h
b0 i
b11111111111111111111111100110110 j
b0 k
b00000000000000000000000000000000 l
b00000000000000000000000000000000 m
b0 n
b00000000000000000000000100100011 o
b0 p
b00000000000000000000000000000000 q
b00000000000000000000000000000000 r
b0 s
b000000000001 t
b0 u
b1 v
b00000000000000000000000000000000 w
b11111111111111111111111100110110 x
b0000001000 y
b00000000000000000000000000000000 z
b0000000000 {
#11
b1101 !
b100 "
b011 #
b000 $
b00000000000000000000000000000001 %
b00000000000000000000000000000000 &
b0000 '
b00000000000000000000000000100000 (
b00000000000000000000000000000101 )
b00000000000000000000000000000001 *
b00000000000000000000000000000001 +
b00000000000000000000000000000000 ,
b00000000000000000000000000000000 -
b00000000000000000000000000011111 .
b00000000000000000000000000000001 /
b00000000000000000000000000000000 0
b000101 1
b000101 2
b000011 3
b0 4
b00000000000000000000000000000001 5
b0 6
b0 7
b0 8
b0 9
b0 :
b0000 ;
b0 <
b1 =
b100 >
b011 ?
b000 @
b1 A
b0 B
b0 C
b0 D
b1 E
b00000000000000000000000000000001 F
b00100000000000000000000000000001 G
b00000000000000000000000000000000 H
b0 I
b0 J
b00000000000000000000000000000000 K
b00000000000000000000000000000000 L
b0 M
b0 N
b00000000000000000000000000000000 O
b0 P
b0 Q
b00000000000000000000000000000000 R
b0 S
b0 T
b00000000000000000000000000000000 U
b0 V
b0 W
b00000000000000000000000000000000 X
b00000000000000000000000000000000 Y
b0 Z
b0 [
b00000000000000000000000000000000 \
b0 ]
b0 ^
b00100000000000000000000000000001 _
b00000000000000000000000000000001 `
b0 a
b0 b
b00000000000000000000000000000000 c
b0 d
b00000000000000000000000000000000 e
b0 f
b00000000000000000000000000000000 g
b00000000000000000000000000000000 h
b0 i
b11111111111111111111111100110110 j
b0 k
b00000000000000000000000000000000 l
b00000000000000000000000000000000 m
b0 n
b00000000000000000000000100100011 o
b0 p
b00000000000000000000000000000000 q
b00000000000000000000000000000000 r
b0 s
b000000000001 t
b0 u
b1 v
b00000000000000000000000000000000 w
b11111111111111111111111100110110 x
b0000001001 y
b00000000000000000000000000000000 z
b0000000000 {
#12
b1101 !
b100 "
b011 #
b000 $
b00000000000000000000000000000001 %
b00000000000000000000000000000000 &
b0000 '
b00000000000000000000000000100000 (
b00000000000000000000000000000101 )
b00000000000000000000000000000001 *
b00000000000000000000000000000001 +
b00000000000000000000000000000000 ,
b00000000000000000000000000000000 -
b00000000000000000000000000011111 .
b00000000000000000000000000000001 /
b00000000000000000000000000000000 0
b000101 1
b000101 2
b000011 3
b0 4
b00000000000000000000000000000001 5
b0 6
b0 7
b0 8
b0 9
b0 :
b0000 ;
b0 <
b1 =
b100 >
b011 ?
b000 @
b1 A
b0 B
b0 C
b0 D
b1 E
b00000000000000000000000000000001 F
b00100000000000000000000000000001 G
b00000000000000000000000000000000 H
b0 I
b0 J
b00000000000000000000000000000000 K
b00000000000000000000000000000000 L
b0 M
b0 N
b00000000000000000000000000000000 O
b0 P
b0 Q
b00000000000000000000000000000000 R
b0 S
b0 T
b00000000000000000000000000000000 U
b0 V
b0 W
b00000000000000000000000000000000 X
b00000000000000000000000000000000 Y
b0 Z
b0 [
b00000000000000000000000000000000 \
b0 ]
b0 ^
b00100000000000000000000000000001 _
b00000000000000000000000000000001 `
b0 a
b0 b
b00000000000000000000000000000000 c
b0 d
b00000000000000000000000000000000 e
b1 f
b00000000000000000000000000000000 g
b00000000000000000000000000000000 h
b0 i
b11111111111111111111111100111001 j
b0 k
b00000000000000000000000000000000 l
b00000000000000000000000000000000 m
b0 n
b00000000000000000000000100100011 o
b0 p
b00000000000000000000000000000000 q
b00000000000000000000000000000000 r
b0 s
b000000000001 t
b0 u
b1 v
b00000000000000000000000000000000 w
b11111111111111111111111100111001 x
b0000000000 y
b00000000000000000000000000000000 z
b0000000000 {
#13
b1101 !
b100 "
b011 #
b000 $
b00000000000000000000000000000001 %
b00000000000000000000000000000000 &
b0000 '
b00000000000000000000000000100000 (
b00000000000000000000000000000101 )
b00000000000000000000000000000001 *
b00000000000000000000000000000001 +
b00000000000000000000000000000000 ,
b00000000000000000000000000000000 -
b00000000000000000000000000011111 .
b00000000000000000000000000000001 /
b00000000000000000000000000000000 0
b000101 1
b000101 2
b000011 3
b0 4
b00000000000000000000000000000001 5
b0 6
b0 7
b0 8
b0 9
b0 :
b0000 ;
b0 <
b1 =
b100 >
b011 ?
b000 @
b1 A
b0 B
b0 C
b0 D
b1 E
b00000000000000000000000000000001 F
b00100000000000000000000000000001 G
b00000000000000000000000000000000 H
b0 I
b0 J
b00000000000000000000000000000000 K
b00000000000000000000000000000000 L
b0 M
b1 N
b00000000000000000000000000000000 O
b0 P
b0 Q
b00000000000000000000000000000000 R
b0 S
b0 T
b00000000000000000000000000000000 U
b0 V
b0 W
b00000000000000000000000000000000 X
b00000000000000000000000000000000 Y
b0 Z
b0 [
b00000000000000000000000000000000 \
b0 ]
b0 ^
b00100000000000000000000000000001 _
b00000000000000000000000000000001 `
b0 a
b1 b
b00000000000000000000000000000000 c
b0 d
b00000000000000000000000000000000 e
b0 f
b00000000000000000000000000000000 g
b00000000000000000000000000000000 h
b0 i
b11111111111111111111111100111001 j
b0 k
b00000000000000000000000000000000 l
b00000000000000000000000000000000 m
b0 n
b00000000000000000000000100100011 o
b0 p
b00000000000000000000000000000000 q
b00000000000000000000000000000000 r
b0 s
b000000000001 t
b0 u
b1 v
b00000000000000000000000000000000 w
b11111111111111111111111100111001 x
b0000000001 y
b00000000000000000000000000000000 z
b0000000000 {
#14
b1101 !
b100 "
b011 #
b000 $
b00000000000000000000000000000001 %
b00000000000000000000000000000000 &
b0000 '
b00000000000000000000000000100000 (
b00000000000000000000000000000101 )
b00000000000000000000000000000001 *
b00000000000000000000000000000001 +
b00000000000000000000000000000000 ,
b00000000000000000000000000000000 -
b00000000000000000000000000011111 .
b00000000000000000000000000000001 /
b00000000000000000000000000000000 0
b000101 1
b000110 2
b000011 3
b0 4
b00000000000000000000000000000001 5
b0 6
b0 7
b0 8
b0 9
b0 :
b0000 ;
b0 <
b1 =
b100 >
b011 ?
b000 @
b1 A
b0 B
b0 C
b0 D
b1 E
b00000000000000000000000000000001 F
b00100000000000000000000000000001 G
b00000000000000000000000000000000 H
b1 I
b0 J
b00000000000000000000000000000000 K
b00000000000000000000000000000000 L
b0 M
b1 N
b00000000000000000000000000000000 O
b1 P
b0 Q
b00000000000000000000000000000000 R
b0 S
b0 T
b00000000000000000000000000000000 U
b1 V
b0 W
b00000000000000000000000000000000 X
b00000000000000000000000000000000 Y
b0 Z
b0 [
b00000000000000000000000000000000 \
b1 ]
b0 ^
b00000000000000000000000000000000 _
b00000000000000000000000000000000 `
b0 a
b1 b
b00000000000000000000000000000000 c
b1 d
b00000000000000000000000000000000 e
b0 f
b00000000000000000000000000000000 g
b00000000000000000000000000000000 h
b0 i
b11111111111111111111111100111001 j
b0 k
b00000000000000000000000000000000 l
b00000000000000000000000000000000 m
b0 n
b00000000000000000000000100100011 o
b0 p
b00000000000000000000000000000000 q
b00000000000000000000000000000000 r
b0 s
b000000000000 t
b0 u
b1 v
b00000000000000000000000000000000 w
b11111111111111111111111100111001 x
b0000000010 y
b00000000000000000000000000000000 z
b0000000000 {
